<svg width="50" height="50" viewBox="0 0 50 50" fill="none" xmlns="http://www.w3.org/2000/svg">
<g clip-path="url(#clip0)">
<path d="M24.9999 30.6022L0 15.6682L24.9999 0.732422L50 15.6673L24.9999 30.6022ZM3.63972 15.6682L25.0001 28.4277L46.3604 15.6673L24.9999 2.90693L3.63972 15.6682Z" fill="#2577D7" stroke="#2577D7" stroke-width="0.25"/>
<path d="M24.9987 39.9348L1.33984 25.8016L2.29736 24.1992L24.9987 37.7604L47.7003 24.1992L48.6578 25.8016L24.9987 39.9348Z" fill="#2577D7" stroke="#2577D7" stroke-width="0.25"/>
<path d="M24.9987 49.2678L1.33984 35.1346L2.29736 33.5322L24.9987 47.0933L47.7003 33.5322L48.6578 35.1346L24.9987 49.2678Z" fill="#2577D7" stroke="#2577D7" stroke-width="0.25"/>
</g>
<defs>
<clipPath id="clip0">
<rect width="50" height="50" fill="white"/>
</clipPath>
</defs>
</svg>
