<svg width="53" height="53" viewBox="0 0 53 53" fill="none" xmlns="http://www.w3.org/2000/svg">
<path d="M27.9435 33.5568C28.863 33.4853 29.7013 33.0162 30.2455 32.268L38.5161 20.8342C38.7696 20.4835 38.7316 19.9994 38.4242 19.692C38.1168 19.3855 37.6328 19.3475 37.2821 19.6002L25.8465 27.8735C25.1009 28.4158 24.6319 29.2541 24.5603 30.1737C24.4888 31.0932 24.8218 31.9933 25.4728 32.6444C26.0655 33.238 26.8649 33.5665 27.6962 33.5665C27.7783 33.5665 27.8605 33.563 27.9435 33.5568ZM26.3217 30.3115C26.3526 29.9078 26.5593 29.5394 26.8844 29.3027L33.8601 24.2562L28.8153 31.2301C28.5768 31.5578 28.2085 31.7637 27.8048 31.7955C27.4029 31.822 27.008 31.6824 26.721 31.3953C26.4365 31.11 26.2899 30.7143 26.3217 30.3115Z" fill="#2577D7"/>
<path d="M47.7291 17.2815C47.7203 17.263 47.7203 17.2435 47.7106 17.225C47.7 17.2073 47.6832 17.1976 47.6717 17.1808C46.7786 15.6491 45.7222 14.2243 44.5226 12.9329L46.42 11.0364L47.669 12.2854L51.4161 8.53742L47.669 4.79032L43.9211 8.53742L45.171 9.78733L43.2736 11.6839C41.9821 10.4843 40.5582 9.42693 39.0256 8.53388C39.0088 8.5224 38.9991 8.50562 38.9815 8.49502C38.9629 8.48442 38.9435 8.4853 38.9249 8.47558C36.1928 6.90148 33.1232 5.85297 29.8504 5.46872V4.41667H31.1754C32.3936 4.41667 33.3838 3.42645 33.3838 2.20833C33.3838 0.990217 32.3927 0 31.1746 0H23.2246C22.0064 0 21.0162 0.990217 21.0162 2.20833C21.0162 3.42645 22.0064 4.41667 23.2246 4.41667H24.5496V5.4378C23.5956 5.53938 22.6433 5.69485 21.7017 5.91038C21.2265 6.01903 20.9288 6.49338 21.0383 6.96862C21.147 7.44385 21.6213 7.74242 22.0965 7.632C22.9092 7.44562 23.7298 7.30517 24.5522 7.21065L25.5 7.13733C25.7898 7.11525 26.0565 7.09935 26.3162 7.08698V8.83333C26.3162 9.32182 26.7111 9.71667 27.1996 9.71667C27.688 9.71667 28.0829 9.32182 28.0829 8.83333V7.09317C31.4051 7.24598 34.5356 8.13815 37.319 9.60625L36.4481 11.1141C36.2043 11.5372 36.3491 12.0769 36.7714 12.3207C36.91 12.4011 37.062 12.4391 37.2121 12.4391C37.5178 12.4391 37.8146 12.281 37.978 11.9974L38.8463 10.4931C41.6103 12.2465 43.9582 14.5944 45.7116 17.3584L44.2073 18.2267C43.7859 18.4705 43.641 19.0102 43.8857 19.4333C44.05 19.7169 44.3459 19.875 44.6516 19.875C44.8017 19.875 44.9537 19.837 45.0924 19.7566L46.6002 18.8857C48.0886 21.7088 48.9834 24.8906 49.1168 28.2658H47.3722C46.8838 28.2658 46.4889 28.6606 46.4889 29.1491C46.4889 29.6376 46.8838 30.0324 47.3722 30.0324H49.1168C48.9834 33.4077 48.0886 36.5894 46.6002 39.4126L45.0924 38.5416C44.6701 38.2978 44.1295 38.4409 43.8857 38.8649C43.6419 39.288 43.7868 39.8277 44.209 40.0715L45.7133 40.9398C43.9599 43.7038 41.612 46.0517 38.8481 47.8051L37.9798 46.3008C37.7351 45.8768 37.1936 45.7328 36.7731 45.9775C36.35 46.2213 36.2051 46.7619 36.4498 47.1841L37.3208 48.692C34.5374 50.1601 31.4069 51.0522 28.0847 51.2051V49.4667C28.0847 48.9782 27.6898 48.5833 27.2013 48.5833C26.7128 48.5833 26.318 48.9782 26.318 49.4667V51.2121C24.9073 51.1636 23.4922 50.9869 22.0992 50.6671C21.624 50.5532 21.1496 50.8553 21.041 51.3305C20.9314 51.8057 21.2291 52.2801 21.7043 52.3887C23.4675 52.7951 25.2686 53 27.0556 53C27.0989 53 27.1404 52.9973 27.1837 52.9965C27.1898 52.9965 27.1943 53 27.1996 53C27.2066 53 27.2128 52.9956 27.2199 52.9956C31.4661 52.9664 35.4499 51.8199 38.8967 49.8394C38.924 49.8271 38.9532 49.8209 38.9797 49.805C38.9974 49.7944 39.0071 49.7776 39.0239 49.7661C42.5916 47.6867 45.5729 44.709 47.6567 41.1439C47.6735 41.12 47.6947 41.1015 47.7097 41.075C47.7203 41.0564 47.7194 41.037 47.7282 41.0185C49.7458 37.5205 50.9056 33.4695 50.9056 29.15C50.9056 24.8305 49.7458 20.7795 47.7291 17.2815ZM47.6682 7.28838L48.9172 8.53742L47.6682 9.78733L46.4182 8.53742L47.6682 7.28838ZM26.3162 5.31855V2.65H23.2246C22.9816 2.65 22.7829 2.45125 22.7829 2.20833C22.7829 1.96542 22.9816 1.76667 23.2246 1.76667H31.1746C31.4175 1.76667 31.6162 1.96542 31.6162 2.20833C31.6162 2.45125 31.4175 2.65 31.1746 2.65H28.0829V5.31855C27.7755 5.30618 27.4822 5.3 27.1996 5.3C27.1748 5.3 27.1466 5.30177 27.1218 5.30177C27.0997 5.30177 27.0777 5.3 27.0556 5.3C26.9107 5.3 26.7658 5.30972 26.621 5.31237C26.5185 5.31502 26.4222 5.31413 26.3162 5.31855Z" fill="#2577D7"/>
<path d="M19.2492 12.3662H14.8326C14.3441 12.3662 13.9492 12.7611 13.9492 13.2495C13.9492 13.738 14.3441 14.1329 14.8326 14.1329H19.2492C19.7377 14.1329 20.1326 13.738 20.1326 13.2495C20.1326 12.7611 19.7377 12.3662 19.2492 12.3662Z" fill="#2577D7"/>
<path d="M19.2479 18.5498H10.4146C9.9261 18.5498 9.53125 18.9447 9.53125 19.4331C9.53125 19.9216 9.9261 20.3165 10.4146 20.3165H19.2479C19.7364 20.3165 20.1313 19.9216 20.1313 19.4331C20.1313 18.9447 19.7364 18.5498 19.2479 18.5498Z" fill="#2577D7"/>
<path d="M19.2505 24.7334H6.00052C5.51204 24.7334 5.11719 25.1282 5.11719 25.6167C5.11719 26.1052 5.51204 26.5001 6.00052 26.5001H19.2505C19.739 26.5001 20.1339 26.1052 20.1339 25.6167C20.1339 25.1282 19.739 24.7334 19.2505 24.7334Z" fill="#2577D7"/>
<path d="M19.2487 30.917H2.46536C1.97688 30.917 1.58203 31.3118 1.58203 31.8003C1.58203 32.2888 1.97688 32.6837 2.46536 32.6837H19.2487C19.7372 32.6837 20.132 32.2888 20.132 31.8003C20.132 31.3118 19.7372 30.917 19.2487 30.917Z" fill="#2577D7"/>
<path d="M19.2495 37.0996H7.76615C7.27766 37.0996 6.88281 37.4945 6.88281 37.9829C6.88281 38.4714 7.27766 38.8663 7.76615 38.8663H19.2495C19.738 38.8663 20.1328 38.4714 20.1328 37.9829C20.1328 37.4945 19.738 37.0996 19.2495 37.0996Z" fill="#2577D7"/>
<path d="M19.2503 43.2832H13.0669C12.5784 43.2832 12.1836 43.6781 12.1836 44.1665C12.1836 44.655 12.5784 45.0499 13.0669 45.0499H19.2503C19.7387 45.0499 20.1336 44.655 20.1336 44.1665C20.1336 43.6781 19.7387 43.2832 19.2503 43.2832Z" fill="#2577D7"/>
</svg>
