<svg width="51" height="51" viewBox="0 0 51 51" fill="none" xmlns="http://www.w3.org/2000/svg">
<g clip-path="url(#clip0)">
<path d="M24.026 37.7414C23.6424 37.4599 23.1027 37.5421 22.8208 37.9259L22.7143 38.0708C22.4327 38.4543 22.5147 38.9933 22.8978 39.2755C23.0517 39.389 23.2309 39.4438 23.4086 39.4438C23.6728 39.4438 23.9337 39.3226 24.1026 39.0937L24.2107 38.9468C24.4925 38.563 24.4098 38.0233 24.026 37.7414Z" fill="#2577D7"/>
<path d="M24.2531 45.9438L22.0355 41.9114L24.106 39.0915C24.388 38.7077 24.3052 38.168 23.9213 37.8861C23.5375 37.6041 22.9978 37.6869 22.716 38.0709L20.3196 41.3346C20.1209 41.6051 20.0974 41.9663 20.259 42.2605L22.7421 46.7749V46.7748C22.8992 47.0602 23.1941 47.2216 23.4985 47.2216C23.639 47.2215 23.7814 47.1872 23.9132 47.1148C24.3304 46.8854 24.4826 46.3611 24.2531 45.9438Z" fill="#2577D7"/>
<path d="M30.6779 41.3348L28.2912 38.0843C28.0933 37.8149 27.7579 37.6839 27.4298 37.7488C27.1018 37.8133 26.8407 38.0617 26.7596 38.3859C26.6974 38.635 26.7493 38.8985 26.9012 39.1054L28.9615 41.9116L26.759 45.9166C26.6891 46.0438 26.6523 46.1873 26.6523 46.3326C26.6523 46.7262 26.9189 47.0698 27.3001 47.1677C27.3715 47.1862 27.4435 47.195 27.5147 47.195C27.8234 47.195 28.1159 47.0285 28.2702 46.7483L30.7383 42.2609C30.9002 41.9665 30.8765 41.6053 30.6779 41.3348Z" fill="#2577D7"/>
<path d="M32.0461 27.7845C31.7625 27.6356 31.4196 27.6559 31.1557 27.8378C30.6429 28.1911 30.1669 28.5654 29.7412 28.9502C27.4207 31.048 25.216 30.7641 25.1297 30.7518C25.0777 30.7436 25.0248 30.7398 24.9725 30.7415C24.0554 30.765 22.4019 29.927 20.6526 28.5532C20.3851 28.3431 20.1107 28.1429 19.8368 27.958C19.5727 27.7795 19.2313 27.7615 18.9498 27.9112C18.6682 28.0608 18.4922 28.3537 18.4922 28.6726V31.6306C18.4922 31.8922 18.6112 32.1394 18.8152 32.3032C18.8393 32.3226 18.8644 32.3405 18.8903 32.3571L25.0045 36.4427C25.0055 36.4433 25.0064 36.4441 25.0073 36.4448L25.0235 36.4555C25.1674 36.5507 25.3333 36.5988 25.4997 36.5988C25.6398 36.5988 25.7798 36.5649 25.9078 36.4964C25.9348 36.482 25.9607 36.4662 25.9856 36.4492C25.9885 36.4473 25.9914 36.4454 25.9944 36.4435C25.9978 36.4413 26.0012 36.439 26.0045 36.4367L32.1042 32.3608C32.1287 32.3452 32.1526 32.3285 32.1757 32.3106C32.3849 32.1472 32.5073 31.8965 32.5073 31.6309V28.5479C32.5073 28.2274 32.3297 27.9336 32.0461 27.7845ZM30.7826 31.1694L25.4996 34.6996L20.2167 31.1693V30.3851C21.5031 31.3199 23.3954 32.4665 24.9378 32.4664C24.941 32.4664 24.9446 32.4664 24.9479 32.4664C25.4658 32.5237 28.1067 32.6794 30.7828 30.3318V31.1694H30.7826Z" fill="#2577D7"/>
<path d="M26.351 35.5945C26.2942 35.2525 26.0379 34.9779 25.7006 34.8974C25.3631 34.8174 25.0107 34.9464 24.8055 35.2259L22.8236 37.9254C22.5417 38.3093 22.6244 38.849 23.0084 39.1308C23.1621 39.2438 23.3408 39.2982 23.518 39.2982C23.7831 39.2982 24.0447 39.1761 24.2138 38.9459L26.1854 36.2607C26.2976 36.114 26.3629 35.9316 26.3629 35.7365C26.3628 35.6891 26.3588 35.6413 26.351 35.5945Z" fill="#2577D7"/>
<path d="M38.6364 7.79656C38.6192 7.66149 38.2153 4.74632 35.4713 3.59632C35.551 3.08433 35.5426 2.42631 35.2176 1.78612C34.7807 0.925693 33.9186 0.364991 32.655 0.119354C32.6008 0.108795 32.5458 0.103516 32.4906 0.103516H20.9172C16.2178 0.103516 12.3945 3.92673 12.3945 8.62631V13.1676C12.3945 14.3508 12.7978 15.5045 13.53 16.4162C13.893 16.8682 14.34 17.6576 14.4074 18.8511C14.4337 19.3171 14.8238 19.6772 15.2927 19.6642C15.7592 19.6511 16.1306 19.269 16.1306 18.8023V12.8815C16.7161 10.4601 18.7144 9.98887 19.0579 9.92522H22.8014C23.2418 9.92522 23.6748 9.85798 24.0887 9.7253C24.8005 9.497 25.9298 9.07684 26.752 8.76457C27.302 8.55549 27.911 8.54782 28.4665 8.74305L32.4742 10.1499C34.4778 10.889 34.8354 12.6479 34.8797 12.9243V20.0301C34.8797 20.4814 35.2276 20.8559 35.6777 20.8894C35.6996 20.891 35.7211 20.8919 35.7426 20.8919C36.1656 20.8918 36.5307 20.5819 36.5948 20.1573C36.5982 20.1351 36.9424 17.9111 38.0527 16.1305C38.4389 15.5106 38.6432 14.8039 38.6432 14.0867V7.90543C38.6432 7.86908 38.641 7.83272 38.6364 7.79656ZM36.9186 14.0863C36.9186 14.4715 36.8099 14.8536 36.6041 15.1934V12.8653C36.6041 12.8341 36.6024 12.8031 36.5991 12.7722C36.5855 12.647 36.2292 9.69193 33.0631 8.52889C33.0592 8.5275 33.0553 8.5261 33.0515 8.52471L29.0377 7.11563C28.5852 6.95675 28.1117 6.87746 27.6386 6.87746C27.1298 6.87746 26.6213 6.9692 26.1395 7.15249C24.9884 7.58977 24.097 7.91161 23.562 8.08314C23.3186 8.16113 23.0627 8.20078 22.8013 8.20078H18.9882C18.9512 8.20078 18.9142 8.20317 18.8774 8.20785C18.7315 8.22678 15.2923 8.71586 14.4268 12.5952C14.413 12.6568 14.406 12.7198 14.406 12.7829V14.5576C14.2183 14.1237 14.1189 13.6497 14.1189 13.1677V8.62651C14.1189 4.878 17.1686 1.82826 20.917 1.82826H32.4035C32.879 1.92956 33.457 2.13744 33.6762 2.56039C33.9447 3.07806 33.6389 3.79086 33.6386 3.79146C33.5283 4.02604 33.5296 4.29768 33.6417 4.53126C33.7538 4.76484 33.9652 4.93558 34.2172 4.99624C36.4124 5.52467 36.8601 7.63011 36.9185 7.97068V14.0863H36.9186Z" fill="#2577D7"/>
<path d="M36.5994 12.7726C36.5858 12.6474 36.2295 9.69234 33.0634 8.5293C33.0595 8.5279 33.0557 8.52651 33.0518 8.52512L29.038 7.11604C28.0987 6.78633 27.0695 6.79948 26.1397 7.15269C24.9886 7.58998 24.0972 7.91182 23.5622 8.08345C23.3188 8.16144 23.0629 8.20099 22.8015 8.20099H18.9884C18.9514 8.20099 18.9144 8.20338 18.8776 8.20806C18.7317 8.22698 15.2925 8.71607 14.427 12.5954C14.4132 12.657 14.4062 12.72 14.4062 12.7831V20.1957C14.4062 20.202 14.4063 20.2084 14.4064 20.2148C14.4121 20.4723 14.5943 26.5532 18.7958 29.3342L18.8176 29.3495C18.8356 29.3622 18.8536 29.375 18.8724 29.3876C19.112 29.5494 19.3526 29.725 19.5878 29.9097C20.8118 30.8708 23.1185 32.4667 24.9382 32.4667C24.9416 32.4667 24.9447 32.4667 24.9482 32.4667C25.047 32.4775 25.2235 32.4921 25.4627 32.4921C26.494 32.4921 28.6942 32.2218 30.8979 30.2296C31.2678 29.8955 31.6836 29.5685 32.1345 29.2579L32.1989 29.2128C32.2199 29.198 32.2409 29.183 32.2627 29.1685C33.6642 28.2272 36.0915 25.7983 36.6011 20.1072C36.6034 20.0817 36.6045 20.0559 36.6045 20.0302V12.8657C36.6044 12.8346 36.6027 12.8036 36.5994 12.7726ZM34.8798 19.9913C34.4099 25.1273 32.2216 27.1184 31.301 27.7367C31.2684 27.7587 31.2361 27.7814 31.2038 27.8041L31.156 27.8378C30.6431 28.1911 30.1672 28.5655 29.7414 28.9503C27.4296 31.0403 25.2321 30.7661 25.1243 30.751C25.0742 30.7435 25.0234 30.7403 24.9727 30.7417C24.0556 30.7652 22.4021 29.9272 20.6529 28.5534C20.3853 28.3432 20.111 28.143 19.8375 27.9584L19.8162 27.9435C19.7955 27.9288 19.7749 27.9141 19.7506 27.898C16.3601 25.6539 16.1383 20.4024 16.1308 20.1832V12.8818C16.7184 10.4516 18.729 9.98569 19.0567 9.92553H22.8016C23.242 9.92553 23.675 9.85829 24.0889 9.72561C24.8007 9.4973 25.9301 9.07715 26.7522 8.76488C27.3022 8.55579 27.9112 8.54813 28.4667 8.74336L32.4744 10.1502C34.478 10.8893 34.8356 12.6483 34.8799 12.9246V19.9913H34.8798Z" fill="#2577D7"/>
<path d="M26.2694 35.3516C26.1351 35.0829 25.8705 34.9035 25.5712 34.878C25.2724 34.8533 24.9809 34.9846 24.8031 35.2269L22.7376 38.0401C22.456 38.4238 22.5383 38.963 22.9217 39.245C23.0755 39.3582 23.2545 39.4129 23.4319 39.4129C23.6964 39.4129 23.9576 39.2915 24.1266 39.0621L26.1922 36.2592C26.3015 36.111 26.3605 35.9216 26.3605 35.7375C26.3606 35.6037 26.3292 35.4714 26.2694 35.3516Z" fill="#2577D7"/>
<path d="M26.327 49.2341C26.0031 48.8954 25.4679 48.8773 25.122 49.1938L24.9249 49.3741C24.6298 49.6439 24.5589 50.0814 24.754 50.4307L24.7601 50.4415C24.8917 50.6775 25.1266 50.8381 25.3943 50.8752C25.4339 50.8807 25.4736 50.8834 25.513 50.8834C25.74 50.8834 25.9598 50.7936 26.1227 50.6308L26.3137 50.4396C26.6451 50.1082 26.651 49.5727 26.327 49.2341Z" fill="#2577D7"/>
<path d="M26.075 49.374L25.8778 49.1937C25.532 48.8774 24.9967 48.8954 24.6727 49.2341C24.3487 49.5729 24.3547 50.1085 24.6862 50.4398L24.8774 50.631C25.0403 50.7939 25.26 50.8835 25.4871 50.8835C25.5276 50.8835 25.5683 50.8807 25.6091 50.8748C25.8776 50.8365 26.1125 50.6738 26.2431 50.436L26.2492 50.4251C26.4402 50.0765 26.3683 49.6423 26.075 49.374Z" fill="#2577D7"/>
<path d="M26.0905 49.3888L26.0894 49.3878C25.9562 49.2633 25.784 49.1812 25.5942 49.1604C25.3401 49.1327 25.0926 49.2188 24.9126 49.3864L24.91 49.3888C24.7357 49.5478 24.6342 49.7714 24.6291 50.0073C24.624 50.2433 24.7159 50.471 24.8831 50.6373L24.8922 50.6464C25.0604 50.8136 25.2803 50.8972 25.5002 50.8972C25.7209 50.8972 25.9416 50.8129 26.1098 50.6448L26.1189 50.6357C26.2854 50.4691 26.3767 50.2417 26.3712 50.0062C26.366 49.7706 26.2645 49.5476 26.0905 49.3888Z" fill="#2577D7"/>
<path d="M25.7776 34.902C25.4205 34.7877 25.0286 34.9202 24.8112 35.226C24.5679 35.5685 24.6081 36.0352 24.9044 36.3329C25.0711 36.5005 25.2925 36.5863 25.5155 36.5863C25.6887 36.5863 25.8628 36.5345 26.013 36.4287C26.2425 36.2673 26.3791 36.0043 26.3791 35.7236V35.7215C26.3791 35.3463 26.1351 35.0161 25.7776 34.902Z" fill="#2577D7"/>
<path d="M26.1997 35.22L26.1923 35.21C25.9711 34.9106 25.5826 34.7873 25.2291 34.9037C24.8756 35.0202 24.6367 35.3505 24.6367 35.7226V35.7374C24.6367 36.0548 24.8149 36.3442 25.0946 36.4944C25.2213 36.5624 25.3612 36.596 25.5008 36.596C25.6693 36.596 25.8375 36.5472 25.9821 36.4514C26.1793 36.3209 26.3142 36.1151 26.3554 35.8823C26.3965 35.6496 26.3402 35.41 26.1997 35.22Z" fill="#2577D7"/>
<path d="M35.7605 32.5098C35.6712 32.2736 35.4828 32.0885 35.2452 32.0034L31.939 30.8183C31.9122 30.8087 31.8844 30.8002 31.8567 30.7934C31.6208 30.7343 31.3707 30.7777 31.1685 30.9129L25.0427 35.0063C25.0411 35.0074 25.0394 35.0085 25.0377 35.0097L25.5187 35.7249L25.0269 35.0169C24.8472 35.1358 24.7185 35.318 24.6663 35.5269C24.6376 35.6417 24.6329 35.7615 24.6524 35.8782C24.6746 36.0114 24.7278 36.1377 24.8079 36.2468L29.2928 42.355C29.4557 42.5771 29.7143 42.707 29.9877 42.707C30.0064 42.707 30.0252 42.7063 30.044 42.705C30.3378 42.6857 30.6015 42.5181 30.7433 42.26L35.7095 33.2306C35.8314 33.0093 35.85 32.7457 35.7605 32.5098ZM29.8833 40.2453L26.7311 35.9522L31.7656 32.5881L33.7113 33.2856L29.8833 40.2453Z" fill="#2577D7"/>
<path d="M26.3505 35.5882C26.31 35.3567 26.1768 35.1518 25.9815 35.0208L19.8353 30.9138C19.6397 30.7829 19.3985 30.7381 19.1688 30.7891C19.1335 30.7969 19.0988 30.807 19.0649 30.8192L15.7587 32.0043C15.5211 32.0895 15.3327 32.2746 15.2433 32.5107C15.154 32.7468 15.1725 33.0102 15.2942 33.2315L20.2605 42.2609C20.4023 42.5189 20.666 42.6866 20.9597 42.7059C20.9785 42.7071 20.9973 42.7077 21.016 42.7077C21.2893 42.7077 21.5478 42.5778 21.7111 42.3556L24.1075 39.0919C24.1094 39.0894 24.1113 39.0867 24.1132 39.084L26.1961 36.247C26.3352 36.0576 26.3909 35.8197 26.3505 35.5882ZM22.7175 38.0709C22.7154 38.0737 22.7135 38.0764 22.7114 38.0792L21.1203 40.2462L17.2923 33.2864L19.2381 32.5889L24.2724 35.9531L22.7175 38.0709Z" fill="#2577D7"/>
<path d="M50.9558 47.231L49.8435 40.514C49.493 38.3972 48.0218 36.6286 46.0042 35.8989L35.2429 32.0056C34.9111 31.8856 34.5403 31.9797 34.3058 32.2428C34.0713 32.5061 34.0206 32.8856 34.178 33.2013L36.4248 37.707L34.2201 37.741C33.9208 37.7457 33.6452 37.905 33.4923 38.1624C33.3393 38.4198 33.3307 38.738 33.4696 39.0032L34.3738 40.7298L25.1198 49.1953C25.1103 49.2039 25.1011 49.2127 25.092 49.2218L24.901 49.4128C24.6303 49.6836 24.5705 50.1003 24.7542 50.4362L24.761 50.4485C24.9123 50.7249 25.2024 50.8969 25.5175 50.8969H47.8471C48.7748 50.8969 49.6508 50.4912 50.2505 49.7838C50.8504 49.0763 51.1075 48.1458 50.9558 47.231ZM48.9355 48.6684C48.6637 48.9888 48.2671 49.1725 47.8472 49.1725H27.6996L36.0281 41.5539C36.3169 41.2899 36.3916 40.8644 36.2099 40.5177L35.6473 39.4436L37.8214 39.4101C38.1178 39.4057 38.3908 39.2492 38.5449 38.9961C38.6988 38.7427 38.712 38.4284 38.5799 38.1631L36.6836 34.3604L45.418 37.5203C46.8498 38.0383 47.8938 39.2934 48.1426 40.7956L49.2549 47.5126C49.2549 47.5127 49.2549 47.5127 49.2549 47.5127C49.3234 47.927 49.2071 48.3481 48.9355 48.6684Z" fill="#2577D7"/>
<path d="M26.1006 49.3951L26.0905 49.3861C25.7492 49.0771 25.2251 49.0908 24.9004 49.4173L24.8914 49.4264C24.6459 49.6734 24.573 50.044 24.7067 50.3655C24.8405 50.6872 25.1547 50.8966 25.5029 50.8966H25.5218C25.8783 50.8966 26.1982 50.6771 26.3263 50.3445C26.4547 50.0117 26.3649 49.6344 26.1006 49.3951Z" fill="#2577D7"/>
<path d="M26.0662 49.3708C25.8705 49.1946 25.605 49.1174 25.345 49.1617C25.0854 49.2056 24.86 49.3661 24.7333 49.597L24.7274 49.6078C24.5456 49.9392 24.6009 50.3504 24.8637 50.6222L24.8668 50.6253C25.0358 50.8 25.2609 50.888 25.4866 50.888C25.6943 50.888 25.9026 50.8133 26.0675 50.6626L26.0766 50.6544C26.1549 50.5831 26.2194 50.4976 26.2668 50.4028C26.4404 50.0559 26.3546 49.6301 26.0662 49.3708Z" fill="#2577D7"/>
<path d="M26.1079 49.4224L26.1043 49.4187C26.102 49.4164 26.0996 49.414 26.0974 49.4119L25.9062 49.2208C25.8972 49.2117 25.8879 49.2029 25.8786 49.1944L16.6246 40.7289L17.5289 39.0024C17.6679 38.7372 17.6592 38.4189 17.5063 38.1616C17.3533 37.9043 17.0778 37.7448 16.7785 37.7401L14.5736 37.7061L16.8204 33.2004C16.9778 32.8848 16.927 32.5052 16.6926 32.242C16.4582 31.9787 16.0869 31.8846 15.7555 32.0047L4.99434 35.898C2.97665 36.6277 1.50542 38.3962 1.15489 40.5131L0.0425533 47.2301C-0.108953 48.1453 0.148239 49.0757 0.748088 49.783C1.34804 50.4903 2.2241 50.896 3.15147 50.896H25.5001C25.8493 50.896 26.164 50.6854 26.297 50.3626C26.4302 50.0399 26.3555 49.6685 26.1079 49.4224ZM3.15157 49.1716C2.73161 49.1716 2.33497 48.9879 2.06343 48.6676C1.7919 48.3473 1.67555 47.9261 1.74408 47.5117L2.85642 40.7947C3.10515 39.2923 4.14916 38.0374 5.58104 37.5195L14.3153 34.3596L12.4191 38.162C12.2869 38.4273 12.3 38.7417 12.4541 38.995C12.608 39.2482 12.8812 39.4046 13.1776 39.4091L15.3516 39.4426L14.7891 40.5167C14.6075 40.8634 14.6822 41.2889 14.9708 41.553L23.2993 49.1716H3.15157Z" fill="#2577D7"/>
<path d="M28.4365 38.8037C28.4987 38.5547 28.4468 38.291 28.2949 38.0841L26.1966 35.2264C25.976 34.926 25.5872 34.8066 25.2331 34.9227C25.042 34.9854 24.8845 35.1119 24.7797 35.2735L22.7197 38.0687C22.6902 38.1085 22.664 38.1514 22.6418 38.1958C22.5007 38.4782 22.5251 38.8151 22.7053 39.0741L23.5826 40.3339L22.6481 46.2245C22.6181 46.4137 22.652 46.6073 22.7442 46.7752L24.7462 50.415C24.8977 50.6906 25.1873 50.8617 25.5017 50.8617C25.8162 50.8617 26.1057 50.6906 26.2572 50.415L28.2741 46.7482C28.344 46.6209 28.3808 46.4779 28.3808 46.3327V46.3322C28.3808 46.287 28.3771 46.2417 28.3701 46.197L27.4399 40.334L28.3077 39.0881C28.3673 39.0018 28.4112 38.9053 28.4365 38.8037ZM25.5017 48.2103L24.3975 46.2029L25.3402 40.2613C25.3752 40.0411 25.3235 39.8162 25.1962 39.6334L24.4736 38.5957L25.5042 37.1974L26.5401 38.6083L25.8262 39.6334C25.6989 39.8161 25.6473 40.0411 25.6822 40.2613L26.6206 46.1758L25.5017 48.2103Z" fill="#2577D7"/>
</g>
<defs>
<clipPath id="clip0">
<rect width="51" height="51" fill="white"/>
</clipPath>
</defs>
</svg>
