<svg width="22" height="20" viewBox="0 0 22 20" fill="none" xmlns="http://www.w3.org/2000/svg">
<path d="M9.86295 17.0371C9.56286 17.0371 9.26952 17.124 9.02001 17.2868C8.7705 17.4496 8.57603 17.6809 8.4612 17.9517C8.34636 18.2224 8.31631 18.5202 8.37486 18.8076C8.4334 19.095 8.5779 19.359 8.79009 19.5662C9.00228 19.7733 9.27263 19.9144 9.56695 19.9716C9.86126 20.0288 10.1663 19.9994 10.4436 19.8873C10.7208 19.7752 10.9578 19.5853 11.1245 19.3417C11.2912 19.098 11.3802 18.8116 11.3802 18.5186C11.3795 18.1259 11.2195 17.7494 10.9351 17.4717C10.6507 17.1941 10.2651 17.0378 9.86295 17.0371ZM9.86295 19.1746C9.73033 19.1746 9.60069 19.1362 9.49042 19.0642C9.38015 18.9923 9.2942 18.89 9.24345 18.7704C9.1927 18.6507 9.17942 18.5191 9.20529 18.3921C9.23117 18.2651 9.29503 18.1484 9.3888 18.0569C9.48258 17.9653 9.60206 17.9029 9.73213 17.8777C9.8622 17.8524 9.99702 17.8654 10.1195 17.9149C10.2421 17.9645 10.3468 18.0484 10.4205 18.1561C10.4942 18.2637 10.5335 18.3903 10.5335 18.5198C10.5333 18.6934 10.4625 18.8598 10.3368 18.9825C10.2111 19.1053 10.0407 19.1743 9.86295 19.1746Z" fill="#D00000"/>
<path d="M15.9313 17.0371C15.6312 17.0371 15.3379 17.124 15.0884 17.2868C14.8389 17.4496 14.6444 17.6809 14.5296 17.9517C14.4147 18.2224 14.3847 18.5202 14.4432 18.8076C14.5018 19.095 14.6463 19.359 14.8585 19.5662C15.0706 19.7733 15.341 19.9144 15.6353 19.9716C15.9296 20.0288 16.2347 19.9994 16.5119 19.8873C16.7892 19.7752 17.0261 19.5853 17.1928 19.3417C17.3596 19.098 17.4485 18.8116 17.4485 18.5186C17.4479 18.1259 17.2878 17.7494 17.0034 17.4717C16.719 17.1941 16.3335 17.0378 15.9313 17.0371ZM15.9313 19.1746C15.7987 19.1746 15.669 19.1363 15.5587 19.0644C15.4483 18.9925 15.3623 18.8903 15.3115 18.7707C15.2607 18.651 15.2474 18.5194 15.2732 18.3923C15.299 18.2653 15.3628 18.1486 15.4566 18.057C15.5504 17.9654 15.6698 17.903 15.7999 17.8777C15.93 17.8524 16.0648 17.8653 16.1874 17.9149C16.3099 17.9644 16.4147 18.0484 16.4884 18.156C16.5621 18.2637 16.6014 18.3903 16.6014 18.5198C16.6013 18.6934 16.5307 18.8598 16.405 18.9825C16.2794 19.1053 16.109 19.1743 15.9313 19.1746Z" fill="#D00000"/>
<path d="M3.79297 3.70361H21.2412L19.5635 12.5925H5.67927L3.79297 3.70361Z" fill="#D00000"/>
<path d="M12.1389 5.60653L12.1389 11.4566C12.142 11.5626 12.1833 11.6632 12.254 11.737C12.3248 11.8108 12.4195 11.8521 12.518 11.8521C12.6165 11.8521 12.7112 11.8108 12.7819 11.737C12.8527 11.6632 12.894 11.5626 12.8971 11.4566L12.8971 5.60653C12.8987 5.55185 12.8901 5.49739 12.8718 5.44638C12.8534 5.39536 12.8258 5.34883 12.7904 5.30955C12.755 5.27027 12.7127 5.23904 12.6659 5.21771C12.6191 5.19638 12.5688 5.18538 12.518 5.18538C12.4672 5.18538 12.4169 5.19638 12.3701 5.21771C12.3233 5.23904 12.2809 5.27027 12.2456 5.30955C12.2102 5.34883 12.1825 5.39536 12.1642 5.44638C12.1459 5.49739 12.1373 5.55185 12.1389 5.60653Z" fill="white"/>
<path d="M15.4833 8.14813H9.58046C9.51855 8.14657 9.45687 8.15499 9.3991 8.17289C9.34132 8.19079 9.28862 8.2178 9.24414 8.25233C9.19965 8.28686 9.16428 8.3282 9.14012 8.37389C9.11596 8.41958 9.10352 8.4687 9.10352 8.51832C9.10352 8.56794 9.11596 8.61706 9.14012 8.66275C9.16428 8.70844 9.19965 8.74978 9.24414 8.78431C9.28862 8.81884 9.34132 8.84585 9.3991 8.86375C9.45687 8.88165 9.51855 8.89007 9.58046 8.88851H15.4833C15.6033 8.88547 15.7172 8.84514 15.8008 8.77605C15.8844 8.70696 15.9311 8.61453 15.9311 8.51832C15.9311 8.42211 15.8844 8.32968 15.8008 8.26059C15.7172 8.1915 15.6033 8.15117 15.4833 8.14813Z" fill="white"/>
<path d="M21.7565 4.05973C21.6554 3.92955 21.5277 3.82464 21.3827 3.75272C21.2377 3.68079 21.0791 3.64368 20.9185 3.64409H4.08096L3.74072 1.92153C3.70581 1.74422 3.63048 1.5783 3.52111 1.4378C3.41174 1.2973 3.27155 1.18636 3.11239 1.11438L0.739892 0.0396756C0.609344 -0.0143018 0.463795 -0.013164 0.334037 0.0428484C0.204279 0.0988607 0.10049 0.205354 0.0446284 0.339798C-0.0112335 0.474242 -0.0147865 0.626092 0.034721 0.763221C0.0842285 0.900351 0.182913 1.012 0.309897 1.07456L2.6824 2.14926L5.29784 15.3986C5.34947 15.652 5.48279 15.8793 5.67557 16.0427C5.86835 16.206 6.10894 16.2954 6.35724 16.296H19.3066C19.379 16.2984 19.4511 16.2856 19.5187 16.2583C19.5862 16.231 19.6478 16.1899 19.6999 16.1373C19.7519 16.0847 19.7933 16.0217 19.8215 15.9521C19.8498 15.8824 19.8643 15.8076 19.8643 15.732C19.8643 15.6564 19.8498 15.5816 19.8215 15.512C19.7933 15.4424 19.7519 15.3794 19.6999 15.3268C19.6478 15.2742 19.5862 15.233 19.5187 15.2057C19.4511 15.1785 19.379 15.1656 19.3066 15.168H6.35671L6.03851 13.556H19.4065C19.6552 13.5553 19.896 13.4655 20.0888 13.3016C20.2816 13.1377 20.4145 12.9097 20.4654 12.6557L21.9774 5.00206C22.0101 4.83809 22.0073 4.66855 21.9691 4.50587C21.9308 4.3432 21.8582 4.19152 21.7565 4.06197V4.05973ZM19.4065 12.4308H5.81599L4.30402 4.77209H20.9185L19.4065 12.4308Z" fill="#D00000"/>
</svg>
