<svg width="17" height="18" viewBox="0 0 17 18" fill="none" xmlns="http://www.w3.org/2000/svg">
<path d="M7.83001 8.02839C8.08832 7.78065 8.08832 7.37807 7.83001 7.13032C7.5717 6.88258 7.15195 6.88258 6.89364 7.13032L3.39031 10.4903C2.79297 11.0632 2.47009 11.8065 2.47009 12.6116C2.47009 13.4168 2.79297 14.16 3.39031 14.7329C4.61728 15.9097 6.60304 15.9097 7.81387 14.7329L15.7246 7.14581C16.548 6.35613 17 5.30323 17 4.18839C17 3.07355 16.548 2.02065 15.7246 1.23097C14.0133 -0.410323 11.2526 -0.410323 9.54131 1.23097L1.64672 8.80258C0.581197 9.82452 0 11.1716 0 12.6116C0 14.0516 0.581197 15.4142 1.64672 16.4206C2.71225 17.4426 4.11681 18 5.61823 18C7.11966 18 8.54036 17.4426 9.58974 16.4206L13.0931 13.0606C13.3514 12.8129 13.3514 12.4103 13.0931 12.1626C12.8348 11.9148 12.415 11.9148 12.1567 12.1626L8.65337 15.5226C7.84615 16.2968 6.76448 16.7303 5.61823 16.7303C4.47199 16.7303 3.39031 16.2968 2.5831 15.5226C1.77588 14.7484 1.32384 13.711 1.32384 12.6116C1.32384 11.5123 1.77588 10.4748 2.5831 9.70065L10.4777 2.12903C11.0589 1.57161 11.8177 1.27742 12.6249 1.27742C13.4321 1.27742 14.207 1.5871 14.7721 2.12903C15.3533 2.68645 15.66 3.41419 15.66 4.18839C15.66 4.96258 15.3371 5.70581 14.7721 6.24774L6.86135 13.8348C6.16714 14.5006 5.02089 14.5006 4.31054 13.8348C3.97151 13.5097 3.77778 13.0761 3.77778 12.6116C3.77778 12.1471 3.97151 11.7135 4.31054 11.3884L7.83001 8.02839Z" fill="white"/>
</svg>
