<svg width="18" height="14" viewBox="0 0 18 14" fill="none" xmlns="http://www.w3.org/2000/svg">
<path fill-rule="evenodd" clip-rule="evenodd" d="M5.99844 11.1996L1.79844 6.99961L0.398438 8.39961L5.99844 13.9996L17.9984 1.99961L16.5984 0.599609L5.99844 11.1996Z" fill="#45B700"/>
</svg>
