<svg width="11" height="15" viewBox="0 0 11 15" fill="none" xmlns="http://www.w3.org/2000/svg">
<path fill-rule="evenodd" clip-rule="evenodd" d="M5.125 15C5.46667 15 10.25 7.76142 10.25 5C10.25 2.23858 7.95546 0 5.125 0C2.29454 0 0 2.23858 0 5C0 7.76142 4.78333 15 5.125 15ZM5.125 8.4375C6.54023 8.4375 7.6875 6.94852 7.6875 5.47697C7.6875 4.00543 6.54023 2.8125 5.125 2.8125C3.70977 2.8125 2.5625 4.00543 2.5625 5.47697C2.5625 6.94852 3.70977 8.4375 5.125 8.4375Z" fill="#2577D7"/>
</svg>
