<svg width="15" height="13" viewBox="0 0 15 13" fill="none" xmlns="http://www.w3.org/2000/svg">
<path d="M7.5 0L9.18386 4.83688H14.6329L10.2245 7.82624L11.9084 12.6631L7.5 9.67376L3.09161 12.6631L4.77547 7.82624L0.367076 4.83688H5.81614L7.5 0Z" fill="#9FA6AB"/>
</svg>
