<svg width="6" height="8" viewBox="0 0 6 8" fill="none" xmlns="http://www.w3.org/2000/svg">
<path fill-rule="evenodd" clip-rule="evenodd" d="M0.734375 0.933333L1.66771 0L5.66771 4L1.66771 8L0.734375 7.06667L3.80104 4L0.734375 0.933333Z" fill="#232F36"/>
</svg>
