<svg width="9" height="9" viewBox="0 0 9 9" fill="none" xmlns="http://www.w3.org/2000/svg">
<path d="M2.58801 8.67C2.80229 8.88428 3.08251 8.99967 3.37922 8.99967C3.41218 8.99967 3.44515 8.99967 3.4946 8.99967C3.82427 8.9667 4.13746 8.78538 4.31878 8.50516L8.81878 1.74692C9.16493 1.23593 9.01658 0.52714 8.50559 0.180986C7.9946 -0.165168 7.28581 -0.0168162 6.93966 0.494173L3.1979 6.09857L1.91218 4.81285C1.46713 4.3678 0.758338 4.3678 0.313283 4.81285C-0.131772 5.25791 -0.131772 5.9667 0.313283 6.41176L2.58801 8.67Z" fill="white"/>
</svg>
