<svg width="10" height="9" viewBox="0 0 10 9" fill="none" xmlns="http://www.w3.org/2000/svg">
<path d="M2.59484 8.67049C2.80913 8.88477 3.08935 9.00016 3.38605 9.00016C3.41902 9.00016 3.45199 9.00016 3.50144 9.00016C3.83111 8.96719 4.1443 8.78587 4.32561 8.50565L8.82561 1.74741C9.17177 1.23642 9.02342 0.527628 8.51243 0.181474C8.00144 -0.16468 7.29265 -0.016328 6.94649 0.494661L3.20473 6.09906L1.91902 4.81334C1.47397 4.36829 0.765174 4.36829 0.320119 4.81334C-0.124936 5.2584 -0.124936 5.96719 0.320119 6.41224L2.59484 8.67049Z" fill="#232F36"/>
</svg>
