<svg width="18" height="14" viewBox="0 0 18 14" fill="none" xmlns="http://www.w3.org/2000/svg">
<path fill-rule="evenodd" clip-rule="evenodd" d="M5.99844 11.2001L1.79844 7.0001L0.398438 8.4001L5.99844 14.0001L17.9984 2.0001L16.5984 0.600098L5.99844 11.2001Z" fill="white"/>
</svg>
