<svg width="12" height="16" viewBox="0 0 12 16" fill="none" xmlns="http://www.w3.org/2000/svg">
<path d="M11.6234 2.02103L10.2337 0.430895C9.99261 0.154999 9.66558 2.04023e-06 9.32459 0L4.71429 0C4.0042 0 3.42857 0.658648 3.42857 1.47115V2.94231H1.28571C0.575625 2.94231 0 3.60096 0 4.41346V14.2212C0 15.0337 0.575625 15.6923 1.28571 15.6923H7.28571C7.9958 15.6923 8.57143 15.0337 8.57143 14.2212V12.75H10.7143C11.4244 12.75 12 12.0914 12 11.2788V3.06129C12 2.67111 11.8645 2.29692 11.6234 2.02103ZM7.125 14.2212H1.44643C1.4038 14.2212 1.36293 14.2018 1.33279 14.1673C1.30265 14.1328 1.28571 14.086 1.28571 14.0373V4.59736C1.28571 4.54858 1.30265 4.50181 1.33279 4.46732C1.36293 4.43284 1.4038 4.41346 1.44643 4.41346H3.42857V11.2788C3.42857 12.0914 4.0042 12.75 4.71429 12.75H7.28571V14.0373C7.28571 14.086 7.26878 14.1328 7.23864 14.1673C7.2085 14.2018 7.16762 14.2212 7.125 14.2212ZM10.5536 11.2788H4.875C4.83238 11.2788 4.7915 11.2595 4.76136 11.225C4.73122 11.1905 4.71429 11.1437 4.71429 11.095V1.65505C4.71429 1.60628 4.73122 1.5595 4.76136 1.52502C4.7915 1.49053 4.83238 1.47115 4.875 1.47115H7.71429V4.16827C7.71429 4.57452 8.0021 4.90385 8.35714 4.90385H10.7143V11.095C10.7143 11.1437 10.6974 11.1905 10.6672 11.225C10.6371 11.2595 10.5962 11.2788 10.5536 11.2788ZM10.7143 3.43269H9V1.47115H9.258C9.30062 1.47115 9.34149 1.49052 9.37165 1.525L10.6672 3.00744C10.6821 3.02452 10.694 3.04479 10.7021 3.0671C10.7101 3.08942 10.7143 3.11333 10.7143 3.13748V3.43269Z" fill="#B7C2C9"/>
</svg>
