<svg width="24" height="25" viewBox="0 0 24 25" fill="none" xmlns="http://www.w3.org/2000/svg">
<path d="M20.4489 7.21167L22.0921 5.43079C22.2735 5.23407 22.2518 4.93836 22.0435 4.77032L19.0256 2.33639C18.9671 2.28916 18.8974 2.25542 18.8223 2.23793L12.3239 0.724333L12.3208 0.723813C12.299 0.718907 12.2771 0.715147 12.2548 0.713044C12.2338 0.71107 12.2123 0.710586 12.1911 0.711085C12.1876 0.711168 12.1841 0.711208 12.1807 0.711328C12.1378 0.713205 12.0952 0.720167 12.054 0.732132C12.0513 0.732905 12.0489 0.7337 12.0462 0.734516C12.0262 0.740742 12.0064 0.747876 11.9871 0.756425C11.9669 0.76544 11.9468 0.77603 11.9278 0.787636L11.9239 0.790168C11.9074 0.800494 11.8915 0.811832 11.8761 0.824099C11.8734 0.826323 11.8707 0.828506 11.8679 0.830781C11.8516 0.84439 11.8359 0.858617 11.8213 0.874436L11.8191 0.876972L10.5067 2.29926C10.4196 2.3937 10.3756 2.51639 10.3848 2.64024C10.3939 2.76409 10.4552 2.87898 10.5553 2.95969L14.7047 6.30619L13.3902 7.73069L9.241 4.38432C9.03261 4.21633 8.71669 4.23958 8.53509 4.43627L7.87777 5.14868C7.73635 5.302 7.71457 5.52192 7.82396 5.69468L10.3177 9.6348L8.36381 11.7524C8.27668 11.8469 8.23273 11.9695 8.24185 12.0934C8.25096 12.2172 8.31234 12.3322 8.41241 12.4129L8.7896 12.7171L8.11503 13.4482L5.48777 16.2957L5.48583 16.2975L5.48415 16.2996L4.17412 17.7198L4.17135 17.7225L4.16902 17.7253L2.85906 19.1452L2.85695 19.1472L2.85513 19.1494L1.5425 20.572C1.45537 20.6665 1.41152 20.7892 1.42063 20.913C1.42975 21.0368 1.49103 21.1517 1.5911 21.2324L4.60892 23.6662C4.71309 23.7502 4.84419 23.7865 4.97197 23.777C5.09971 23.7676 5.22404 23.7126 5.31479 23.6142L11.9607 16.4113C12.0436 16.5475 12.1516 16.6709 12.2821 16.7761C12.5844 17.0198 12.971 17.1378 13.371 17.1083C13.7709 17.0789 14.1361 16.9056 14.3995 16.6203C14.8278 16.1561 14.8777 15.5058 14.5744 15.0046L15.9452 13.5189L17.0767 14.4315C17.2851 14.5995 17.601 14.5764 17.7826 14.3796L18.44 13.6672C18.9835 13.078 18.9181 12.1891 18.2942 11.6859L17.1626 10.7734L18.477 9.34865L19.6085 10.2612C19.91 10.5045 20.2967 10.6222 20.6976 10.5926C21.0983 10.5632 21.4636 10.3901 21.7261 10.1055L22.3835 9.393C22.4707 9.29852 22.5145 9.17588 22.5054 9.05204C22.4962 8.92819 22.435 8.81325 22.3348 8.73259L20.4489 7.21167ZM11.3091 9.9868C11.4505 9.83348 11.4723 9.61357 11.3629 9.44081L8.86919 5.50069L8.96098 5.40119L13.4875 9.05189L10.2014 12.6134L9.44702 12.0049L11.3091 9.9868ZM13.6451 16.0117C13.5573 16.1068 13.4356 16.1646 13.3023 16.1744C13.169 16.1842 13.0401 16.1449 12.9393 16.0636C12.8386 15.9824 12.778 15.869 12.7688 15.7444C12.7596 15.6197 12.803 15.4985 12.8908 15.4034C12.9786 15.3083 13.1002 15.2505 13.2336 15.2407C13.3667 15.2309 13.4953 15.2701 13.5959 15.351C13.8033 15.5189 13.8261 15.8156 13.6451 16.0117ZM17.6369 12.3984C17.8448 12.5661 17.8666 12.8623 17.6856 13.0587L17.3569 13.4149L16.2253 12.5022C16.0169 12.3342 15.701 12.3575 15.5194 12.5542L13.8205 14.3955C13.6149 14.321 13.392 14.29 13.1648 14.3067C12.9376 14.3234 12.7216 14.3867 12.5291 14.4905L12.4648 14.4387L15.7508 10.8773L17.6369 12.3984ZM20.9717 9.49703C20.8846 9.59142 20.7628 9.64884 20.6289 9.6587C20.4948 9.66856 20.366 9.62963 20.266 9.54891L18.7571 8.33203C18.6571 8.25136 18.5265 8.21145 18.3941 8.2212C18.2618 8.23094 18.1383 8.28949 18.0512 8.38398L16.408 10.165L16.0308 9.86074C15.8225 9.69271 15.5065 9.71609 15.3249 9.91273L11.3818 14.1864C11.2946 14.2809 11.2507 14.4035 11.2598 14.5274C11.2689 14.6512 11.3303 14.7662 11.4304 14.8468L11.9555 15.2955L4.85994 23.0171L2.37729 21.0326L3.28288 20.112C4.1602 20.8196 4.77408 20.0722 3.94015 19.3996L4.5973 18.6874C4.97599 18.9928 5.90785 20.1194 6.43477 19.5481C6.61633 19.3514 6.59457 19.0557 6.38617 18.8876L5.25456 17.975L5.91171 17.2627L6.28879 17.5669C6.39296 17.6509 6.52406 17.6871 6.65184 17.6777C6.77958 17.6683 6.90391 17.6133 6.99467 17.515C7.17612 17.3182 7.15446 17.0225 6.94616 16.8545L6.56898 16.5503L7.22612 15.8381L7.6033 16.1422C7.70737 16.2262 7.83846 16.2624 7.96625 16.253C8.09398 16.2436 8.21841 16.1886 8.30907 16.0902C8.49062 15.8935 8.46886 15.5978 8.26047 15.4298L7.88339 15.1257L8.54053 14.4135L9.67213 15.3261C9.7763 15.41 9.90739 15.4462 10.0351 15.4368C10.1629 15.4274 10.2872 15.3724 10.378 15.2742C10.5595 15.0774 10.5377 14.7817 10.3294 14.6137L9.1978 13.701L9.54413 13.3258L9.92122 13.6299C10.0254 13.7139 10.1565 13.7501 10.2842 13.7407C10.412 13.7313 10.5363 13.6763 10.6271 13.578L14.5704 9.30407C14.6575 9.20959 14.7015 9.0869 14.6924 8.96305C14.6833 8.83921 14.6219 8.72427 14.5217 8.64361L14.1445 8.33941L15.7877 6.55875C15.8749 6.46431 15.9188 6.34162 15.9097 6.21778C15.9006 6.09393 15.8392 5.97903 15.7391 5.89833L11.5898 2.55178L12.2471 1.83946L16.2827 5.09489C16.3869 5.17891 16.5181 5.21516 16.6458 5.20577C16.7735 5.19637 16.8979 5.14139 16.9886 5.04304C17.1702 4.84632 17.1484 4.5506 16.9401 4.38256L14.1249 2.1114L18.4572 3.12043L21.0086 5.1783L19.3654 6.95913C19.2783 7.05362 19.2344 7.17625 19.2436 7.3001C19.2527 7.42395 19.314 7.53889 19.4141 7.61955L21.3002 9.1405L20.9717 9.49703Z" fill="#0F8EC7"/>
</svg>
