<svg width="18" height="18" viewBox="0 0 18 18" fill="none" xmlns="http://www.w3.org/2000/svg">
<path fill-rule="evenodd" clip-rule="evenodd" d="M12.502 11H11.708L11.432 10.726C12.407 9.58897 13 8.11497 13 6.49997C13 2.90997 10.09 -3.43323e-05 6.5 -3.43323e-05C2.91 -3.43323e-05 0 2.90997 0 6.49997C0 10.09 2.91 13 6.5 13C8.115 13 9.588 12.408 10.725 11.434L11.001 11.708V12.5L15.999 17.491L17.49 16L12.502 11ZM6.5012 11C4.0152 11 2.0012 8.98604 2.0012 6.50004C2.0012 4.01504 4.0152 2.00004 6.5012 2.00004C8.9862 2.00004 11.0012 4.01504 11.0012 6.50004C11.0012 8.98604 8.9862 11 6.5012 11Z" fill="#3C4858"/>
</svg>
