<svg width="31" height="31" viewBox="0 0 31 31" fill="none" xmlns="http://www.w3.org/2000/svg">
<path d="M16.3448 19.6279C16.8826 19.5861 17.3729 19.3117 17.6912 18.8741L22.5288 12.1864C22.677 11.9813 22.6548 11.6981 22.475 11.5183C22.2952 11.3391 22.0121 11.3168 21.807 11.4646L15.1182 16.3037C14.6821 16.6209 14.4078 17.1113 14.3659 17.6491C14.3241 18.187 14.5189 18.7134 14.8997 19.0942C15.2463 19.4414 15.7139 19.6336 16.2001 19.6336C16.2482 19.6336 16.2962 19.6316 16.3448 19.6279ZM15.3962 17.7297C15.4143 17.4936 15.5352 17.2781 15.7253 17.1397L19.8054 14.188L16.8547 18.267C16.7152 18.4587 16.4998 18.5791 16.2637 18.5977C16.0286 18.6132 15.7976 18.5316 15.6297 18.3637C15.4633 18.1968 15.3776 17.9653 15.3962 17.7297Z" fill="#2577D7"/>
<path d="M27.9178 10.1081C27.9127 10.0972 27.9127 10.0858 27.907 10.075C27.9008 10.0647 27.891 10.059 27.8843 10.0492C27.3619 9.15327 26.744 8.31988 26.0423 7.56452L27.1521 6.45523L27.8827 7.1858L30.0744 4.99358L27.8827 2.80188L25.6905 4.99358L26.4216 5.72467L25.3118 6.83395C24.5564 6.13232 23.7235 5.51387 22.8271 4.99152C22.8173 4.9848 22.8116 4.97498 22.8013 4.96878C22.7904 4.96258 22.7791 4.9631 22.7682 4.95742C21.1702 4.03672 19.3748 3.42343 17.4605 3.19868V2.58333H18.2355C18.948 2.58333 19.5272 2.00415 19.5272 1.29167C19.5272 0.579183 18.9475 0 18.235 0H13.585C12.8725 0 12.2933 0.579183 12.2933 1.29167C12.2933 2.00415 12.8725 2.58333 13.585 2.58333H14.36V3.1806C13.802 3.24002 13.245 3.33095 12.6943 3.45702C12.4163 3.52057 12.2422 3.79802 12.3062 4.07598C12.3698 4.35395 12.6472 4.52858 12.9252 4.464C13.4005 4.35498 13.8805 4.27283 14.3615 4.21755L14.9159 4.17467C15.0854 4.16175 15.2414 4.15245 15.3933 4.14522V5.16667C15.3933 5.45238 15.6243 5.68333 15.91 5.68333C16.1957 5.68333 16.4267 5.45238 16.4267 5.16667V4.14883C18.3698 4.23822 20.2009 4.76005 21.8289 5.61875L21.3195 6.5007C21.1769 6.74818 21.2616 7.06387 21.5086 7.20647C21.5897 7.25348 21.6786 7.2757 21.7664 7.2757C21.9452 7.2757 22.1188 7.18322 22.2144 7.01737L22.7222 6.13748C24.3389 7.16307 25.7122 8.53637 26.7378 10.153L25.8579 10.6609C25.6114 10.8035 25.5267 11.1192 25.6698 11.3667C25.7659 11.5325 25.939 11.625 26.1178 11.625C26.2056 11.625 26.2945 11.6028 26.3756 11.5558L27.2575 11.0463C28.1281 12.6976 28.6515 14.5586 28.7295 16.5328H27.7091C27.4234 16.5328 27.1924 16.7638 27.1924 17.0495C27.1924 17.3352 27.4234 17.5662 27.7091 17.5662H28.7295C28.6515 19.5403 28.1281 21.4014 27.2575 23.0526L26.3756 22.5432C26.1286 22.4006 25.8124 22.4843 25.6698 22.7323C25.5272 22.9798 25.612 23.2955 25.8589 23.4381L26.7388 23.9459C25.7132 25.5626 24.3399 26.9359 22.7233 27.9615L22.2154 27.0816C22.0723 26.8336 21.7556 26.7494 21.5096 26.8925C21.2621 27.0351 21.1774 27.3513 21.3205 27.5983L21.83 28.4802C20.2019 29.3389 18.3709 29.8607 16.4277 29.9501V28.9333C16.4277 28.6476 16.1967 28.4167 15.911 28.4167C15.6253 28.4167 15.3944 28.6476 15.3944 28.9333V29.9543C14.5692 29.9258 13.7415 29.8225 12.9268 29.6355C12.6488 29.5688 12.3713 29.7455 12.3078 30.0235C12.2437 30.3015 12.4178 30.5789 12.6958 30.6425C13.7271 30.8801 14.7806 31 15.8258 31C15.8511 31 15.8754 30.9984 15.9007 30.9979C15.9043 30.9979 15.9069 31 15.91 31C15.9141 31 15.9177 30.9974 15.9219 30.9974C18.4055 30.9804 20.7357 30.3097 22.7517 29.1514C22.7677 29.1441 22.7848 29.1405 22.8003 29.1312C22.8106 29.125 22.8163 29.1152 22.8261 29.1085C24.9129 27.8923 26.6567 26.1506 27.8755 24.0653C27.8853 24.0513 27.8977 24.0405 27.9065 24.025C27.9127 24.0141 27.9122 24.0028 27.9173 23.9919C29.0974 21.9459 29.7758 19.5765 29.7758 17.05C29.7758 14.5235 29.0974 12.1541 27.9178 10.1081ZM27.8822 4.26302L28.6128 4.99358L27.8822 5.72467L27.1511 4.99358L27.8822 4.26302ZM15.3933 3.11085V1.55H13.585C13.4429 1.55 13.3267 1.43375 13.3267 1.29167C13.3267 1.14958 13.4429 1.03333 13.585 1.03333H18.235C18.3771 1.03333 18.4933 1.14958 18.4933 1.29167C18.4933 1.43375 18.3771 1.55 18.235 1.55H16.4267V3.11085C16.2469 3.10362 16.0753 3.1 15.91 3.1C15.8955 3.1 15.879 3.10103 15.8645 3.10103C15.8516 3.10103 15.8387 3.1 15.8258 3.1C15.741 3.1 15.6563 3.10568 15.5716 3.10723C15.5116 3.10878 15.4553 3.10827 15.3933 3.11085Z" fill="#2577D7"/>
<circle cx="16" cy="17" r="13.5" stroke="#2577D7"/>
</svg>
