[
  {
    "image": "cart-item-1.png",
    "category": "Плита магнитная плоская",
    "name": "ХМ91 150х350 сила frrrrr 678...",
    "link": "#",
    "count": 1,
    "price": {
      "cost": "15 708 ₽",
      "perOne": "5 708 ₽/шт",
      "discount": ""
    }
  },
  {
    "image": "cart-item-2.png",
    "category": "Штангенциркуль с глубиномером",
    "name": "ЭНКОР 0-150мм/0,05мм",
    "link": "#",
    "count": 1,
    "price": {
      "cost": "5 708 ₽",
      "perOne": "5 708 ₽/шт",
      "discount": ""
    }
  },
  {
    "image": "cart-item-3.png",
    "category": "Штангенциркуль с глубиномером",
    "name": "ЭНКОР 0-150мм/0,05мм",
    "link": "#",
    "count": 166,
    "price": {
      "cost": "128 708 ₽",
      "perOne": "700 ₽/шт",
      "discount": ""
    }
  },
  {
    "image": "cart-item-4.png",
    "category": "Штангенциркуль с глубиномером",
    "name": "ЭНКОР 0-150мм/0,05мм",
    "link": "#",
    "count": 1,
    "price": {
      "cost": "5 708 ₽",
      "perOne": "5 708 ₽/шт",
      "discount": ""
    }
  },
  {
    "image": "cart-item-5.png",
    "category": "Плита магнитная плоская",
    "name": "ХМ91 150х350 сила притяжения 110 N/см кв. CNIC (66025-10)",
    "link": "#",
    "count": 2,
    "price": {
      "cost": "10 708 ₽",
      "perOne": "5 708 ₽/шт",
      "discount": ""
    }
  }
]
