<svg width="16" height="16" viewBox="0 0 16 16" fill="none" xmlns="http://www.w3.org/2000/svg">
<path fill-rule="evenodd" clip-rule="evenodd" d="M1.29688 14.222H15.9996L8.64823 0.888672L1.29688 14.222ZM9.51293 12.4444H7.7832V10.6667H9.51293V12.4444ZM9.51293 9.77778H7.7832V6.22222H9.51293V9.77778Z" fill="#D00000"/>
</svg>
