<svg width="15" height="15" viewBox="0 0 15 15" fill="none" xmlns="http://www.w3.org/2000/svg">
<path fill-rule="evenodd" clip-rule="evenodd" d="M3.0075 13.5C3.0075 12.675 3.675 12 4.5 12C5.325 12 6 12.675 6 13.5C6 14.325 5.325 15 4.5 15C3.675 15 3.0075 14.325 3.0075 13.5ZM10.5075 13.5C10.5075 12.675 11.175 12 12 12C12.825 12 13.5 12.675 13.5 13.5C13.5 14.325 12.825 15 12 15C11.175 15 10.5075 14.325 10.5075 13.5ZM10.9125 8.25H5.325L4.5 9.75H12.75C13.1625 9.75 13.5 10.0875 13.5 10.5C13.5 10.9125 13.1625 11.25 12.75 11.25H4.5C3.36 11.25 2.64 10.0275 3.1875 9.0225L4.2 7.1925L1.5 1.5H0.75C0.3375 1.5 0 1.1625 0 0.75C0 0.3375 0.3375 0 0.75 0H1.98C2.265 0 2.535 0.165 2.655 0.4275L3.53644 2.28978H13.3791L13.455 2.1525C13.65 1.7925 14.1075 1.665 14.4675 1.86C14.8275 2.0625 14.9625 2.52 14.76 2.88L12.225 7.4775C11.97 7.9425 11.475 8.25 10.9125 8.25ZM12.3313 4.18452L10.9125 6.75H5.6475L4.43323 4.18452H12.3313Z" fill="#D00000"/>
</svg>
