<svg width="41" height="30" viewBox="0 0 41 30" fill="none" xmlns="http://www.w3.org/2000/svg">
<path d="M34.8329 11.2112C34.4728 4.98046 29.4032 0 23.2907 0C19.5802 0 15.9873 1.84362 13.761 4.85169C13.7104 4.82469 13.6564 4.80669 13.6052 4.78108C13.4699 4.71462 13.3325 4.65092 13.1917 4.59485C13.1132 4.56369 13.0346 4.53531 12.9553 4.50692C12.8173 4.45777 12.6779 4.41485 12.5351 4.37538C12.4558 4.35392 12.3772 4.33177 12.2966 4.31308C12.1435 4.27777 11.9877 4.25077 11.8299 4.22723C11.7602 4.21685 11.6918 4.203 11.6215 4.19469C11.396 4.16977 11.1664 4.15385 10.9333 4.15385C7.54263 4.15385 4.78333 6.94869 4.78333 10.3846C4.78333 10.4739 4.78812 10.5612 4.79427 10.6484C1.95228 12.2178 0 15.507 0 18.7989C0 23.7025 3.93737 27.6923 8.77742 27.6923H12.3C12.6772 27.6923 12.9833 27.3828 12.9833 27C12.9833 26.6172 12.6772 26.3077 12.3 26.3077H8.77742C4.69108 26.3077 1.36667 22.9396 1.36667 18.7989C1.36667 15.9231 3.21508 12.9378 5.76187 11.7007L6.15 11.5131V11.0769C6.15 10.9918 6.15547 10.9045 6.16025 10.8173L6.1664 10.6962L6.1582 10.566C6.15478 10.5058 6.15 10.4455 6.15 10.3846C6.15 7.713 8.29567 5.53846 10.9333 5.53846C11.1445 5.53846 11.3529 5.55715 11.5599 5.58485C11.6132 5.59177 11.6659 5.60077 11.7185 5.60977C11.9016 5.64023 12.082 5.68038 12.2597 5.73231C12.2829 5.73923 12.3068 5.74338 12.3294 5.75031C12.5248 5.81054 12.7155 5.88738 12.902 5.97323C14.8056 8.07692 16.5139 1.15385 23.2907 1.38462C28.5825 1.38462 32.979 5.63192 33.4369 10.9987C32.7385 10.9488 31.6923 10.9232 30.6468 11.0852C30.2737 11.1427 30.0175 11.4958 30.0742 11.8738C30.1254 12.2165 30.4165 12.4622 30.7486 12.4622C30.7828 12.4622 30.8177 12.4595 30.8525 12.4539C32.3722 12.2213 33.9569 12.4394 34.0532 12.4525C37.2348 13.0652 39.6333 16.0345 39.6333 19.3652C39.6333 23.193 36.559 26.3077 32.7809 26.3077H30.0667C29.6895 26.3077 29.3833 26.6172 29.3833 27C29.3833 27.3828 29.6895 27.6923 30.0667 27.6923H32.7809C37.3127 27.6923 41 23.9566 41 19.3652C41 15.5652 38.3849 12.1569 34.8329 11.2112Z" fill="#4C728B"/>
<path d="M21.5613 12.8951C21.4973 12.8307 21.42 12.7801 21.3344 12.7448C21.1646 12.6749 20.9725 12.6749 20.8027 12.7448C20.7171 12.7801 20.6406 12.8307 20.5758 12.8951L15.0088 18.4331C14.7367 18.7038 14.7367 19.1414 15.0088 19.4121C15.1445 19.5471 15.3227 19.6149 15.5008 19.6149C15.679 19.6149 15.8572 19.5471 15.9929 19.4121L20.3726 15.0552V29.3077C20.3726 29.6906 20.6844 30.0001 21.0686 30.0001C21.4528 30.0001 21.7645 29.6906 21.7645 29.3077V15.0552L26.1443 19.4121C26.28 19.5471 26.4582 19.6149 26.6363 19.6149C26.8145 19.6149 26.9927 19.5471 27.1284 19.4121C27.4005 19.1414 27.4005 18.7038 27.1284 18.4331L21.5613 12.8951Z" fill="#4C728B"/>
</svg>
