<svg width="21" height="21" viewBox="0 0 21 21" fill="none" xmlns="http://www.w3.org/2000/svg">
<g clip-path="url(#clip0)">
<path d="M9.28375 3.67461L7.63455 1.37091L7.6342 1.37056L7.53025 1.22461H0V19.7746H21V3.67461H9.28375ZM20.3 4.37461V6.12461H11.038L9.7853 4.37461H20.3ZM0.7 19.0746V1.92461H7.16975L8.91975 4.37461H8.92395L10.5654 6.66746C10.6337 6.76266 10.7411 6.81341 10.85 6.81376V6.82461H20.3V19.0746H0.7Z" fill="white" stroke="white" stroke-width="0.5"/>
<path d="M7.45312 11.4771L7.94803 11.972L10.1506 9.76949V15.9246H10.8506V9.76949L13.0531 11.972L13.548 11.4771L10.5006 8.42969L7.45312 11.4771Z" fill="white" stroke="white" stroke-width="0.5"/>
</g>
<defs>
<clipPath id="clip0">
<rect width="21" height="21" fill="white"/>
</clipPath>
</defs>
</svg>
