<svg width="124" height="25" viewBox="0 0 124 25" fill="none" xmlns="http://www.w3.org/2000/svg">
<g clip-path="url(#clip0)">
<path d="M23.3285 15.3524L21.7747 14.6715C21.6274 14.6189 21.4947 14.5292 21.3884 14.4102C21.2821 14.2912 21.2054 14.1466 21.1651 13.9892C21.1248 13.8318 21.1222 13.6664 21.1574 13.5076C21.1926 13.3489 21.2646 13.2017 21.367 13.079L23.6627 9.90926C24.0888 9.31686 23.8648 8.91295 23.1632 9.00912L21.4919 9.23223C21.3413 9.26001 21.1865 9.24936 21.0407 9.20119C20.8948 9.15302 20.7623 9.06875 20.6541 8.95552C20.546 8.84229 20.4655 8.70343 20.4195 8.55071C20.3735 8.39799 20.3634 8.23591 20.3899 8.07821L20.8674 4.13529C20.9372 3.38518 20.5699 3.15437 19.9895 3.60059L18.6525 4.66999C18.5342 4.77698 18.3926 4.85181 18.2402 4.88788C18.0878 4.92395 17.9292 4.92014 17.7785 4.87679C17.6278 4.83344 17.4897 4.75188 17.3762 4.63933C17.2628 4.52678 17.1776 4.3867 17.1281 4.23146L15.6588 0.569358C15.3833 -0.115362 14.9242 -0.115362 14.6634 0.569358L14.0095 2.20423C13.9593 2.35848 13.8736 2.49741 13.76 2.60874C13.6463 2.72008 13.5083 2.80039 13.358 2.8426C13.2077 2.8848 13.0497 2.88759 12.8982 2.85073C12.7466 2.81386 12.606 2.73847 12.4888 2.63121L9.45845 0.226998C8.89645 -0.219225 8.50709 3.99945e-05 8.59892 0.769389L8.81564 2.50042C8.84305 2.65828 8.83351 2.82075 8.78783 2.9739C8.74215 3.12706 8.6617 3.26633 8.55336 3.37978C8.44502 3.49323 8.31204 3.57749 8.16579 3.62533C8.01955 3.67317 7.86441 3.68316 7.71368 3.65445L3.93395 3.16591C3.23237 3.07744 3.0083 3.46211 3.4344 4.0699L4.45555 5.47011C4.55784 5.59333 4.62952 5.74107 4.66425 5.90024C4.69897 6.05942 4.69566 6.2251 4.65461 6.38261C4.61356 6.54012 4.53603 6.6846 4.4289 6.80322C4.32178 6.92185 4.18836 7.01096 4.04047 7.06267L0.539911 8.60136C-0.113919 8.88987 -0.113919 9.37071 0.539911 9.64768L2.09 10.3247C2.23918 10.3758 2.37396 10.4648 2.48234 10.5837C2.59071 10.7026 2.66931 10.8477 2.71114 11.0062C2.75296 11.1646 2.7567 11.3314 2.72203 11.4917C2.68735 11.652 2.61535 11.8009 2.51242 11.925L0.216669 15.0908C-0.209423 15.6832 -4.99235e-05 16.0871 0.734591 15.9948L2.38753 15.7717C2.53812 15.7439 2.69289 15.7546 2.83872 15.8027C2.98455 15.8509 3.11714 15.9352 3.22527 16.0484C3.33339 16.1616 3.41386 16.3005 3.45986 16.4532C3.50585 16.6059 3.51602 16.768 3.48949 16.9257L3.02667 20.8802C2.93851 21.6149 3.3242 21.8496 3.88987 21.3995L5.22692 20.3301C5.34542 20.2232 5.48726 20.1485 5.63989 20.1127C5.79253 20.0769 5.95124 20.081 6.10197 20.1247C6.25271 20.1685 6.39082 20.2505 6.50408 20.3635C6.61734 20.4764 6.70225 20.6169 6.7513 20.7725L8.22058 24.4384C8.49607 25.1231 8.95522 25.1231 9.21602 24.4384L9.86617 22.8151C9.91427 22.6593 9.99843 22.5184 10.1112 22.4049C10.2239 22.2914 10.3617 22.2089 10.5122 22.1647C10.6628 22.1206 10.8214 22.1161 10.974 22.1517C11.1267 22.1873 11.2685 22.2619 11.3869 22.3689L14.4173 24.7731C14.9793 25.2232 15.3686 24.9885 15.2768 24.2538L15.0601 22.5035C15.0336 22.3458 15.0437 22.1837 15.0897 22.031C15.1357 21.8783 15.2162 21.7394 15.3243 21.6262C15.4324 21.513 15.565 21.4287 15.7109 21.3805C15.8567 21.3323 16.0115 21.3217 16.162 21.3495L19.9344 21.8496C20.636 21.9457 20.8564 21.538 20.4266 20.9494L19.4092 19.5454C19.3037 19.4214 19.2296 19.2717 19.1937 19.11C19.1577 18.9483 19.1611 18.7797 19.2035 18.6197C19.2459 18.4597 19.326 18.3134 19.4363 18.1942C19.5467 18.075 19.6839 17.9867 19.8352 17.9374L23.3358 16.3987C23.9823 16.1064 23.9823 15.6371 23.3285 15.3524ZM11.8166 20.157C10.3827 20.1562 8.98118 19.7102 7.78926 18.8754C6.59734 18.0405 5.66854 16.8543 5.1203 15.4667C4.57206 14.0792 4.42899 12.5525 4.70919 11.0797C4.98938 9.60701 5.68025 8.25434 6.69445 7.19276C7.70866 6.13117 9.00065 5.40835 10.4071 5.11566C11.8135 4.82298 13.2713 4.97358 14.596 5.54842C15.9207 6.12327 17.0529 7.09655 17.8495 8.3452C18.6461 9.59386 19.0712 11.0618 19.0712 12.5635C19.0693 14.5775 18.3042 16.5083 16.944 17.932C15.5839 19.3557 13.7397 20.156 11.8166 20.157Z" fill="white"/>
<path d="M11.9446 6.20509C11.1034 6.20368 10.2712 6.38715 9.50195 6.74363L10.1484 7.51298C10.9267 7.20988 11.7634 7.10864 12.5871 7.2179C13.4109 7.32716 14.1971 7.64367 14.8786 8.14039C15.5601 8.6371 16.1166 9.29925 16.5006 10.0702C16.8845 10.8412 17.0845 11.6981 17.0834 12.5676L18.0238 12.4599C17.993 10.7918 17.3394 9.20271 16.2029 8.03344C15.0665 6.86416 13.5378 6.20779 11.9446 6.20509Z" fill="white"/>
<path d="M11.9451 17.9603C10.5876 17.9603 9.28508 17.3982 8.32172 16.3965C7.35837 15.3949 6.8123 14.0349 6.8026 12.6133L5.87695 12.7248C5.91614 14.3853 6.57191 15.9643 7.70497 17.1264C8.83804 18.2886 10.3591 18.9424 11.9451 18.9489C12.7891 18.9505 13.6239 18.7657 14.3951 18.4065L13.745 17.6179C13.1694 17.8438 12.5598 17.9597 11.9451 17.9603Z" fill="white"/>
<path d="M15.3246 16.6252L14.7295 15.8943C15.28 15.3877 15.6951 14.7397 15.9338 14.0141C16.1726 13.2885 16.2268 12.5102 16.0911 11.756C15.9555 11.0018 15.6346 10.2976 15.1601 9.71264C14.6856 9.12772 14.0739 8.68226 13.3851 8.42011L10.138 15.4366C9.64943 15.1001 9.25596 14.6326 8.99862 14.0827C8.74127 13.5328 8.62947 12.9208 8.67486 12.3102C8.72025 11.6997 8.92118 11.1131 9.2567 10.6116C9.59222 10.11 10.05 9.71193 10.5825 9.45874L8.74587 7.16992C7.96446 7.67779 7.30327 8.36471 6.81208 9.17895C6.3209 9.99318 6.01251 10.9135 5.91016 11.8706L6.87621 11.7629C7.06174 10.5026 7.6683 9.35214 8.58792 8.51628L9.18298 9.23178C8.62274 9.74158 8.2009 10.3972 7.96008 11.1324C7.71927 11.8676 7.66801 12.6563 7.81149 13.4189C7.95497 14.1815 8.28809 14.891 8.77722 15.4756C9.26634 16.0601 9.89413 16.4992 10.5972 16.7483L13.8296 9.75494C14.3025 10.0989 14.6802 10.5678 14.9243 11.114C15.1685 11.6602 15.2703 12.2642 15.2196 12.8649C15.1689 13.4656 14.9674 14.0416 14.6355 14.5345C14.3037 15.0273 13.8533 15.4195 13.33 15.6712L15.1887 17.9562C15.9575 17.4501 16.6087 16.7706 17.0948 15.9673C17.581 15.1641 17.8898 14.2573 17.9987 13.3132L17.0326 13.4209C16.839 14.6655 16.2346 15.7995 15.3246 16.6252Z" fill="white"/>
<path d="M29.9729 5.11625H28.5037V8.21673H27.8535V4.55078H29.9729V5.11625Z" fill="white"/>
<path d="M33.4957 4.55078H34.1606V8.21673H33.4957V5.7702L32.1844 8.21673H31.5195V4.55078H32.1697V6.99346L33.4957 4.55078Z" fill="white"/>
<path d="M38.329 8.21673H37.6752V5.11625H36.3638V8.21673H35.6953V4.55078H38.329V8.21673Z" fill="white"/>
<path d="M42.2792 6.60494H40.9312V7.65126H42.507V8.21673H40.2773V4.55078H42.5033V5.11625H40.9312V6.03947H42.2792V6.60494Z" fill="white"/>
<path d="M44.8355 6.88494V8.21591H44.1816V4.54996H45.4783C45.6383 4.5403 45.7986 4.56388 45.9499 4.61934C46.1012 4.67479 46.2405 4.76103 46.3599 4.87309C46.4678 4.98222 46.5524 5.11407 46.6081 5.25994C46.6638 5.40581 46.6894 5.5624 46.6831 5.71937C46.6901 5.87643 46.6649 6.03324 46.6091 6.17922C46.5533 6.3252 46.4683 6.45698 46.3599 6.56566C46.2402 6.67703 46.1008 6.76257 45.9495 6.81736C45.7982 6.87215 45.6381 6.89511 45.4783 6.88494H44.8355ZM44.8355 6.31946H45.4783C45.5548 6.32531 45.6316 6.31354 45.7033 6.28496C45.775 6.25638 45.8399 6.2117 45.8934 6.15405C45.9886 6.03462 46.0383 5.88255 46.0329 5.72707C46.0383 5.56807 45.9887 5.41238 45.8934 5.28854C45.8412 5.22862 45.7768 5.1819 45.7049 5.15192C45.633 5.12193 45.5555 5.10945 45.4783 5.11543H44.8355V6.31946Z" fill="white"/>
<path d="M48.328 4.55078L49.1581 7.2435L49.9956 4.55078H50.8478V8.21673H50.1976V7.12425L50.2601 5.50477L49.3895 8.22058H48.9524L48.0855 5.52785L48.148 7.13579V8.22827H47.4941V4.55078H48.328Z" fill="white"/>
<path d="M54.1568 7.4243H53.0144L52.794 8.21673H52.1328L53.2348 4.55078H53.9033L55.0053 8.21673H54.3624L54.1568 7.4243ZM53.176 6.84729H53.9951L53.5948 5.40861L53.176 6.84729Z" fill="white"/>
<path d="M57.3687 6.88494V8.21591H56.7148V4.54996H58.0115C58.1715 4.5403 58.3318 4.56388 58.4831 4.61934C58.6344 4.67479 58.7737 4.76103 58.8931 4.87309C59.0004 4.98266 59.0846 5.11458 59.1403 5.26035C59.196 5.40612 59.2219 5.56249 59.2163 5.71937C59.2226 5.87634 59.197 6.03293 59.1413 6.1788C59.0856 6.32467 59.001 6.45652 58.8931 6.56566C58.7734 6.67703 58.634 6.76257 58.4827 6.81736C58.3314 6.87215 58.1713 6.89511 58.0115 6.88494H57.3687ZM57.3687 6.31946H58.0115C58.0875 6.32554 58.1638 6.31385 58.235 6.28525C58.3061 6.25664 58.3703 6.21183 58.4229 6.15405C58.5207 6.03594 58.5719 5.88328 58.5661 5.72707C58.5715 5.56807 58.5219 5.41238 58.4266 5.28854C58.3743 5.22885 58.3098 5.18228 58.2379 5.15231C58.166 5.12234 58.0886 5.10974 58.0115 5.11543H57.3687V6.31946Z" fill="white"/>
<path d="M61.7106 6.68572H61.3433V8.22442H60.6895V4.55078H61.3433V6.04717H61.6261L62.4893 4.55078H63.2864L62.1844 6.25874L63.3672 8.21673H62.5701L61.7106 6.68572Z" fill="white"/>
<path d="M67.3412 6.60494H65.9931V7.65126H67.5873V8.21673H65.3613V4.55078H67.5836V5.11625H66.0115V6.03947H67.3596L67.3412 6.60494Z" fill="white"/>
<path d="M71.7436 5.11625H70.8253V8.21673H70.1568V5.11625H69.2422V4.55078H71.7289L71.7436 5.11625Z" fill="white"/>
<path d="M77.6368 4.55078H78.2906V8.21673H77.6368V5.7702L76.3255 8.21673H75.668V4.55078H76.3181V6.99346L77.6368 4.55078Z" fill="white"/>
<path d="M82.4445 8.21673H81.7943V6.67803H80.4683V8.21673H79.8145V4.55078H80.4683V6.12795H81.7943V4.55078H82.4445V8.21673Z" fill="white"/>
<path d="M86.5891 6.96683C86.6012 7.13797 86.5791 7.30988 86.5241 7.47152C86.469 7.63316 86.3823 7.78096 86.2695 7.90544C86.1476 8.02551 86.0037 8.11844 85.8465 8.17861C85.6893 8.23878 85.522 8.26493 85.3549 8.25549C85.1755 8.26232 84.9969 8.22758 84.8318 8.15377C84.6667 8.07996 84.5192 7.9689 84.3999 7.82851C84.148 7.52573 84.0166 7.13338 84.0326 6.73218V6.02053C84.0201 5.62106 84.1512 5.23122 84.3999 4.92806C84.5141 4.788 84.6569 4.67659 84.8178 4.60202C84.9786 4.52745 85.1534 4.49164 85.3292 4.49722C85.5003 4.4872 85.6715 4.513 85.833 4.5731C85.9945 4.63321 86.1429 4.72642 86.2695 4.84728C86.3857 4.97211 86.4753 5.12136 86.5323 5.28516C86.5893 5.44896 86.6124 5.62357 86.6001 5.79742H85.9536C85.9667 5.59945 85.912 5.40306 85.7994 5.24349C85.7391 5.17535 85.6647 5.12259 85.5819 5.08925C85.4991 5.0559 85.4102 5.04287 85.3218 5.05116C85.2288 5.04919 85.1368 5.07264 85.055 5.11917C84.9732 5.16571 84.9044 5.23374 84.8553 5.31658C84.7342 5.52182 84.6741 5.76018 84.6827 6.0013V6.73218C84.6728 6.97628 84.7371 7.21737 84.8664 7.42075C84.9195 7.50489 84.9922 7.57343 85.0777 7.61988C85.1632 7.66633 85.2586 7.68915 85.3549 7.68618C85.4386 7.69296 85.5227 7.67988 85.6009 7.64791C85.6792 7.61594 85.7495 7.56591 85.8067 7.50153C85.9145 7.34127 85.9664 7.14704 85.9536 6.95145L86.5891 6.96683Z" fill="white"/>
<path d="M90.7502 5.11625H89.8282V8.21673H89.1781V5.11625H88.2598V4.55078H90.7502V5.11625Z" fill="white"/>
<path d="M93.0545 6.88575V8.21672H92.4043V4.55077H93.7009C94.024 4.53212 94.341 4.64831 94.5825 4.8739C94.6899 4.98347 94.7741 5.11539 94.8298 5.26116C94.8855 5.40693 94.9113 5.5633 94.9058 5.72018C94.912 5.87715 94.8865 6.03374 94.8308 6.17961C94.7751 6.32548 94.6904 6.45733 94.5825 6.56647C94.3407 6.79103 94.0236 6.90587 93.7009 6.88575H93.0545ZM93.0545 6.32027H93.7009C93.7769 6.32635 93.8533 6.31466 93.9244 6.28606C93.9956 6.25745 94.0598 6.21264 94.1123 6.15486C94.2091 6.03637 94.2591 5.88364 94.2519 5.72788C94.259 5.56863 94.2092 5.41232 94.1123 5.28935C94.0609 5.22951 93.9971 5.1828 93.9258 5.15279C93.8545 5.12278 93.7776 5.11028 93.7009 5.11624H93.0545V6.32027Z" fill="white"/>
<path d="M97.6846 6.17795L97.736 6.37414L98.3494 4.55078H99.04L97.938 7.52047C97.8634 7.72684 97.7497 7.91527 97.6038 8.0744C97.5287 8.14339 97.4414 8.19622 97.3469 8.22988C97.2524 8.26354 97.1524 8.27737 97.0528 8.27058H96.9279H96.8214V7.70896H96.9058H96.9977C97.0942 7.71894 97.1906 7.68852 97.2658 7.62433C97.3332 7.54705 97.3834 7.45509 97.4127 7.35506L97.4605 7.22042L96.3145 4.55847H97.0197L97.6846 6.17795Z" fill="white"/>
<path d="M100.674 4.55078L101.505 7.2435L102.338 4.55078H103.216V8.21673H102.555V7.12425L102.617 5.50477L101.747 8.21673H101.31L100.443 5.52401L100.505 7.13195V8.22442H99.8516V4.55078H100.674Z" fill="white"/>
<path d="M107.133 6.60494H105.789V7.65126H107.364V8.21673H105.135V4.55078H107.361V5.11625H105.789V6.03947H107.137L107.133 6.60494Z" fill="white"/>
<path d="M111.515 8.21673H110.865V6.67803H109.535V8.21673H108.885V4.55078H109.535V6.12795H110.865V4.55078H111.515V8.21673Z" fill="white"/>
<path d="M115.666 5.11625H114.744V8.21673H114.094V5.11625H113.176V4.55078H115.666V5.11625Z" fill="white"/>
<path d="M119.821 6.71244C119.837 7.1195 119.706 7.51795 119.453 7.828C119.33 7.97213 119.178 8.08636 119.008 8.16275C118.838 8.23914 118.654 8.27586 118.469 8.27037C118.285 8.27658 118.102 8.24014 117.933 8.16366C117.764 8.08719 117.613 7.97257 117.492 7.828C117.239 7.51795 117.108 7.1195 117.124 6.71244V6.05465C117.109 5.64765 117.24 5.24933 117.492 4.93909C117.614 4.79473 117.764 4.68026 117.933 4.6038C118.102 4.52734 118.285 4.49078 118.469 4.49672C118.654 4.49097 118.838 4.52757 119.008 4.60398C119.178 4.68039 119.33 4.79476 119.453 4.93909C119.706 5.24876 119.837 5.64748 119.821 6.05465V6.71244ZM119.167 6.0508C119.178 5.80066 119.111 5.55358 118.976 5.34685C118.918 5.2588 118.84 5.18755 118.749 5.13978C118.657 5.09201 118.556 5.06929 118.454 5.07373C118.353 5.06922 118.252 5.09194 118.161 5.13975C118.071 5.18755 117.993 5.25885 117.936 5.34685C117.807 5.55585 117.742 5.80187 117.753 6.0508V6.71629C117.742 6.96825 117.807 7.21733 117.94 7.42794C117.997 7.51516 118.075 7.58586 118.166 7.63357C118.256 7.68128 118.357 7.70449 118.458 7.70106C118.56 7.70443 118.66 7.68124 118.752 7.63356C118.843 7.58588 118.921 7.51521 118.979 7.42794C119.112 7.21733 119.177 6.96825 119.167 6.71629V6.0508Z" fill="white"/>
<path d="M121.535 8.21633V4.55038H122.637C122.954 4.53133 123.269 4.62041 123.533 4.80426C123.642 4.89138 123.729 5.00556 123.786 5.13651C123.842 5.26747 123.866 5.41107 123.857 5.55438C123.859 5.71482 123.817 5.8726 123.735 6.00829C123.654 6.145 123.533 6.25131 123.39 6.31219C123.478 6.3291 123.563 6.36437 123.638 6.4159C123.713 6.46743 123.777 6.53419 123.827 6.61223C123.927 6.77051 123.979 6.95715 123.974 7.14693C123.985 7.29557 123.962 7.44473 123.909 7.58283C123.855 7.72093 123.772 7.84425 123.666 7.94321C123.414 8.13997 123.105 8.23677 122.791 8.21633H121.535ZM122.189 6.08523H122.659C122.802 6.09557 122.943 6.05339 123.06 5.96598C123.107 5.92189 123.144 5.86713 123.168 5.80583C123.192 5.74453 123.203 5.67828 123.199 5.61208C123.206 5.541 123.197 5.46919 123.173 5.40239C123.149 5.33559 123.11 5.27567 123.06 5.22741C122.935 5.1364 122.785 5.09294 122.633 5.10431H122.189V6.08523ZM122.189 6.593V7.65086H122.788C122.93 7.6608 123.071 7.61564 123.184 7.52391C123.233 7.47442 123.27 7.4142 123.294 7.34765C123.317 7.28111 123.326 7.20991 123.32 7.13924C123.33 6.99222 123.29 6.84628 123.206 6.72764C123.158 6.67786 123.101 6.63942 123.038 6.61487C122.974 6.59032 122.907 6.58024 122.839 6.58531L122.189 6.593Z" fill="white"/>
<path d="M35.6894 13.579L30.4881 15.5947L30.4624 10.6709H27.8691V21.2802H30.4624V18.7029L35.6747 16.6103L35.6894 21.2802H38.2827V10.6709H35.6894V13.579Z" fill="white"/>
<path d="M47.6679 14.6869H42.4409V10.6709H39.8477V21.2802H42.4409V17.2642H47.6679V21.2802H50.2612V10.6709H47.6679V14.6869Z" fill="white"/>
<path d="M63.543 13.2482H67.6606V21.2802H70.2539V13.2482H74.3752V10.6709H63.543V13.2482Z" fill="white"/>
<path d="M61.4924 10.7364H52.5555C52.3817 10.7343 52.2142 10.8044 52.0897 10.9312C51.9651 11.0581 51.8935 11.2314 51.8906 11.4134V20.5456C51.8935 20.7275 51.9651 20.9009 52.0897 21.0277C52.2142 21.1546 52.3817 21.2247 52.5555 21.2226H61.4924C61.6661 21.2247 61.8336 21.1546 61.9582 21.0277C62.0828 20.9009 62.1543 20.7275 62.1572 20.5456V17.2028H59.6448V18.7184H54.4178V13.2291H59.6448V14.7678H62.1572V11.4134C62.1543 11.2314 62.0828 11.0581 61.9582 10.9312C61.8336 10.8044 61.6661 10.7343 61.4924 10.7364Z" fill="white"/>
<path d="M85.0714 10.7133H76.3512C76.2637 10.7102 76.1766 10.7253 76.0948 10.7578C76.013 10.7902 75.9381 10.8394 75.8746 10.9024C75.811 10.9653 75.76 11.0409 75.7246 11.1247C75.6891 11.2084 75.6699 11.2987 75.668 11.3903V21.2534L78.2759 21.2803V18.676H85.0714C85.1585 18.6781 85.2452 18.6621 85.3264 18.6289C85.4076 18.5957 85.4817 18.5461 85.5445 18.4828C85.6073 18.4195 85.6576 18.3439 85.6924 18.2602C85.7271 18.1765 85.7458 18.0864 85.7472 17.9952V11.3903C85.7453 11.2994 85.7263 11.2097 85.6913 11.1265C85.6563 11.0432 85.606 10.968 85.5432 10.9052C85.4805 10.8423 85.4065 10.793 85.3255 10.7601C85.2446 10.7271 85.1582 10.7112 85.0714 10.7133ZM83.2348 16.2026H78.2833V13.2444H83.2384L83.2348 16.2026Z" fill="white"/>
<path d="M124 21.1682L123.978 10.7012H121.168L118.273 13.9824L115.375 10.7012H112.569L112.547 21.1682H115.17V14.6633L118.259 17.9254V17.96L118.273 17.9446L118.288 17.96V17.9254L121.377 14.6633V21.1682H124Z" fill="white"/>
<path d="M110.16 10.7364H101.116C100.955 10.735 100.798 10.7957 100.676 10.907C100.554 11.0183 100.476 11.1725 100.455 11.3404V20.6187C100.476 20.7866 100.554 20.9408 100.676 21.0521C100.798 21.1634 100.955 21.224 101.116 21.2227H110.16C110.334 21.2258 110.503 21.1563 110.629 21.0294C110.755 20.9025 110.828 20.7286 110.832 20.5456V11.4135C110.828 11.2305 110.755 11.0565 110.629 10.9297C110.503 10.8028 110.334 10.7333 110.16 10.7364ZM108.275 18.7184H103.048V13.2291H108.275V18.7184Z" fill="white"/>
<path d="M98.2793 11.3713C98.2807 11.2834 98.2656 11.1961 98.2349 11.1143C98.2041 11.0325 98.1582 10.9578 98.0999 10.8946C98.0416 10.8314 97.9719 10.7808 97.8949 10.7458C97.8179 10.7107 97.7351 10.6919 97.6511 10.6904H89.4856C89.4017 10.6919 89.3189 10.7107 89.2419 10.7458C89.1649 10.7808 89.0952 10.8314 89.0369 10.8946C88.9786 10.9578 88.9327 11.0325 88.9019 11.1143C88.8711 11.1961 88.856 11.2834 88.8575 11.3713L87.9906 18.6801H86.8887V23.3347H89.4783V21.2574H96.8247V23.3347H99.3959V18.6686H98.294L98.2793 11.3713ZM95.708 18.6801H90.5655L91.1422 13.2947H95.7154L95.708 18.6801Z" fill="white"/>
</g>
<defs>
<clipPath id="clip0">
<rect width="124" height="25" fill="white"/>
</clipPath>
</defs>
</svg>
