<svg width="24" height="24" viewBox="0 0 24 24" fill="none" xmlns="http://www.w3.org/2000/svg">
<path d="M14.0565 20.6432L14.8342 18.4051C14.8739 18.2909 14.8496 18.1634 14.7706 18.0708L13.2162 16.2511C13.1371 16.1585 13.015 16.1147 12.8959 16.1359L10.5638 16.5542C10.4426 16.5761 10.3428 16.6614 10.3027 16.7773L9.52493 19.0154C9.4849 19.1299 9.50913 19.2575 9.58818 19.35L11.1426 21.1697C11.2216 21.2623 11.3438 21.3061 11.4632 21.2845L13.7953 20.8662C13.9162 20.8447 14.016 20.7595 14.0565 20.6432ZM11.5332 20.5778L10.2339 19.0567L10.8822 17.1914L12.8255 16.843L14.1249 18.3641L13.4769 20.2291L11.5332 20.5778Z" fill="#0F8EC7"/>
<path d="M13.2339 17.8081C12.7452 17.2359 11.8813 17.1689 11.3079 17.6586C10.7346 18.1483 10.6661 19.0118 11.1548 19.5839C11.6436 20.1561 12.5071 20.2235 13.0804 19.7338C13.6538 19.2441 13.7226 18.3803 13.2339 17.8081ZM11.6745 19.1401C11.4301 18.854 11.4645 18.4225 11.7512 18.1776C12.0379 17.9327 12.4699 17.9659 12.7142 18.252C12.9586 18.5381 12.9238 18.9699 12.6371 19.2148C12.3505 19.4597 11.9189 19.4262 11.6745 19.1401Z" fill="#0F8EC7"/>
<path d="M10.7689 7.79875C10.7294 7.91352 10.7533 8.04067 10.8324 8.13323L12.3871 9.95336C12.4658 10.0455 12.588 10.0894 12.7072 10.0679L15.0396 9.65003C15.1606 9.62837 15.2605 9.54308 15.3008 9.42694L16.0782 7.1885C16.118 7.07412 16.0938 6.94658 16.0151 6.85442L14.4603 5.03429C14.3813 4.94173 14.2594 4.89826 14.1399 4.91933L11.8078 5.33761C11.6868 5.35927 11.5869 5.44457 11.5466 5.5607L10.7689 7.79875ZM14.0697 5.62619L15.3693 7.14775L14.7212 9.01288L12.7777 9.36143L11.4781 7.83987L12.1262 5.97476L14.0697 5.62619Z" fill="#0F8EC7"/>
<path d="M12.3985 8.36789C12.8872 8.94006 13.7511 9.00714 14.3244 8.51741C14.8976 8.02784 14.9664 7.16405 14.4777 6.59187C13.9893 6.02007 13.1254 5.95303 12.5523 6.44262C11.9789 6.93235 11.91 7.79608 12.3985 8.36789ZM13.9578 7.03592C14.2022 7.32202 14.1682 7.75392 13.8815 7.9988C13.5948 8.24368 13.1627 8.20996 12.9183 7.92386C12.6743 7.63815 12.7085 7.20608 12.9952 6.9612C13.2819 6.71633 13.7138 6.75021 13.9578 7.03592Z" fill="#0F8EC7"/>
<path d="M13.1302 14.83L15.1451 14.4334L15.1453 14.4332L17.1606 14.0368L18.8402 13.7065L18.964 14.3751C18.9752 14.4355 19.0015 14.4887 19.0383 14.5318C19.115 14.6217 19.2366 14.668 19.3618 14.6433L21.3772 14.2469C21.4664 14.2294 21.5452 14.1772 21.5965 14.102C21.6478 14.0269 21.6675 13.935 21.6513 13.8463L20.9083 9.83352C20.8742 9.64913 20.6961 9.52892 20.5105 9.56531L18.495 9.96192C18.4062 9.97961 18.3271 10.0315 18.2759 10.1066C18.2244 10.1819 18.2047 10.2739 18.221 10.3624L18.3447 11.0312L17.673 11.1634L14.6502 11.7583C14.65 11.7585 14.65 11.7585 14.65 11.7585L11.6273 12.3531L11.6269 12.3535L10.6191 12.5515C10.434 12.5881 10.3112 12.7674 10.3451 12.9519L10.7167 14.9586C10.7279 15.0182 10.7545 15.0719 10.7913 15.1149C10.8677 15.2044 10.9897 15.2511 11.1144 15.2268L12.1213 15.0283C12.1216 15.0287 12.122 15.0284 12.122 15.0284C12.1227 15.0284 12.1227 15.0284 12.1231 15.0281L13.1295 14.8299C13.1295 14.8299 13.1295 14.8299 13.1302 14.83ZM20.2983 10.3003L20.5459 11.6377L20.2101 11.7039C20.0245 11.7403 19.902 11.9199 19.9361 12.1043C19.9473 12.1647 19.9736 12.2179 20.0107 12.2613C20.0871 12.3508 20.2088 12.3971 20.3339 12.3725L20.6698 12.3064L20.9176 13.6442L19.5737 13.9085L18.955 10.5648L20.2983 10.3003ZM13.6782 14.029L13.3421 14.0953C13.3079 13.9103 13.1298 13.7901 12.9442 13.8265C12.7592 13.8632 12.6364 14.0425 12.6703 14.227L12.3345 14.2931C12.3002 14.1089 12.1221 13.9887 11.9368 14.0249C11.751 14.0615 11.6285 14.2411 11.6628 14.4254L11.3268 14.4916L11.0791 13.1543L11.415 13.0882C11.4261 13.1485 11.4528 13.2015 11.4896 13.2445C11.5663 13.3344 11.6876 13.381 11.8127 13.3564C11.9985 13.3199 12.1212 13.1406 12.0866 12.956L12.4224 12.8898C12.4338 12.95 12.4601 13.0032 12.4972 13.0467C12.5736 13.1361 12.6951 13.1826 12.8202 13.158C13.0058 13.1216 13.1286 12.9423 13.0945 12.7579L13.4303 12.6918C13.4414 12.7515 13.4677 12.8048 13.5048 12.8482C13.5812 12.9377 13.7031 12.9844 13.8281 12.96C14.0137 12.9236 14.1361 12.7439 14.1022 12.5593L14.4381 12.4932C14.4492 12.5535 14.4755 12.6068 14.5126 12.6502C14.5891 12.7397 14.7107 12.786 14.8357 12.7616C15.0214 12.725 15.144 12.5459 15.1098 12.3609L15.4456 12.2948C15.4568 12.3551 15.4833 12.4082 15.5204 12.4516C15.5968 12.5411 15.7185 12.588 15.8437 12.5633C16.029 12.5265 16.1517 12.3472 16.1176 12.1628L16.4534 12.0967C16.4645 12.1565 16.4911 12.2101 16.5279 12.2532C16.6043 12.3427 16.7263 12.3894 16.8512 12.3649C17.0368 12.3285 17.1593 12.1488 17.1254 11.9643L17.4612 11.8981C17.4724 11.9585 17.4987 12.0117 17.5358 12.0551C17.6122 12.1446 17.7338 12.1909 17.859 12.1663C18.0446 12.1299 18.1671 11.9508 18.1329 11.7659L18.4691 11.7001L18.7166 13.0376L18.3808 13.1037C18.3463 12.9189 18.1683 12.7988 17.9827 12.8351C17.7974 12.8719 17.6747 13.0512 17.7088 13.2356L17.3728 13.3019L17.3729 13.3017C17.3388 13.1173 17.1608 12.9971 16.9752 13.0335C16.7896 13.0699 16.6668 13.2492 16.7011 13.4342L16.3652 13.5003C16.331 13.3154 16.1527 13.1953 15.9674 13.2321C15.7819 13.2685 15.6593 13.4476 15.6935 13.6326L15.3573 13.6983C15.3232 13.5139 15.1452 13.3937 14.9596 13.4301C14.774 13.4665 14.6516 13.6462 14.6857 13.8305L14.3498 13.8967C14.3157 13.7123 14.1377 13.5921 13.9521 13.6285C13.7665 13.6649 13.6437 13.8442 13.6782 14.029Z" fill="#0F8EC7"/>
<path d="M8.69756 17.4338L8.48783 14.3673L8.41767 13.3453L8.41773 13.3446L8.16104 9.59675L8.84207 9.55269C9.0301 9.54034 9.17214 9.37815 9.15913 9.18959L9.0192 7.14535C9.01318 7.05494 8.9711 6.97032 8.90299 6.91055C8.83469 6.85095 8.74588 6.82075 8.65518 6.82636L4.57015 7.09118C4.47959 7.09735 4.39523 7.13846 4.33608 7.20677C4.2766 7.2747 4.24637 7.36378 4.25256 7.45405L4.3928 9.49866C4.39781 9.57214 4.4265 9.64184 4.47434 9.69784C4.48475 9.71003 4.49625 9.72196 4.50887 9.7329C4.57698 9.79267 4.66612 9.82326 4.75631 9.8174L5.43739 9.77329L5.62396 12.4992L5.69371 13.5215L5.83364 15.5657C5.83398 15.5661 5.83397 15.5661 5.83397 15.5661L5.97391 17.6103C5.97884 17.6845 6.00755 17.7542 6.05506 17.8099C6.0658 17.8224 6.07767 17.834 6.08992 17.8453C6.15842 17.9047 6.24723 17.9349 6.33742 17.9291L8.38067 17.7967C8.56848 17.7846 8.71074 17.6222 8.69756 17.4338ZM5.73115 9.06973L5.05044 9.11352L4.95681 7.75056L6.31896 7.66231L6.34212 8.00295C6.3476 8.07931 6.37744 8.14803 6.42365 8.20213C6.49134 8.28136 6.59442 8.32906 6.70594 8.32206C6.89414 8.30956 7.03602 8.14751 7.02315 7.95884L6.99999 7.6182L8.36147 7.52989L8.4549 8.89306L6.42646 9.02459L5.73115 9.06973ZM6.63146 17.226L6.608 16.8849C6.7962 16.8725 6.93807 16.7104 6.92487 16.522C6.91235 16.3337 6.7492 16.1911 6.56136 16.2033L6.5382 15.8626C6.72604 15.8505 6.86828 15.6881 6.85507 15.4997C6.8422 15.3117 6.6794 15.1688 6.49156 15.181L6.46841 14.8403C6.65625 14.8281 6.79816 14.6654 6.78528 14.4774C6.7724 14.2894 6.60961 14.1465 6.42138 14.159L6.39792 13.818C6.58643 13.8059 6.72799 13.6434 6.71551 13.4551C6.70263 13.2671 6.53945 13.1245 6.35161 13.1367L6.32815 12.7957C6.51599 12.7835 6.65822 12.6212 6.64535 12.4332C6.63216 12.2448 6.4697 12.1023 6.28153 12.114L6.25837 11.7734C6.44621 11.7612 6.58845 11.5989 6.57524 11.4105C6.56237 11.2225 6.39989 11.0799 6.21134 11.0921L6.18819 10.7514C6.3764 10.7389 6.51827 10.5769 6.50545 10.3882C6.49257 10.2002 6.32939 10.0576 6.14155 10.0698L6.1184 9.72911L7.48024 9.64049L7.50371 9.9815C7.31519 9.99363 7.17363 10.156 7.18612 10.3444C7.1916 10.4207 7.22144 10.4894 7.26732 10.5432C7.33533 10.6228 7.43808 10.6701 7.54999 10.6628L7.57346 11.0038C7.38531 11.0156 7.24338 11.1783 7.25626 11.3663C7.26135 11.443 7.29117 11.5117 7.33738 11.5658C7.40506 11.645 7.50814 11.6927 7.62006 11.6854L7.64321 12.026C7.45537 12.0382 7.31313 12.2006 7.32601 12.3886C7.33149 12.4649 7.36133 12.5336 7.40754 12.5877C7.47522 12.667 7.57831 12.7147 7.68983 12.7077L7.69022 12.7073L7.71337 13.048C7.52517 13.0605 7.38329 13.2225 7.39611 13.4112C7.40127 13.4872 7.43112 13.556 7.47731 13.61C7.545 13.6893 7.64808 13.737 7.75999 13.7296L7.78314 14.0703C7.5953 14.0824 7.4534 14.2452 7.46627 14.4332C7.47104 14.5095 7.5009 14.5782 7.54709 14.6323C7.6151 14.7119 7.71785 14.7592 7.82976 14.7519L7.85323 15.0929C7.66507 15.1047 7.52315 15.2675 7.53602 15.4555C7.54151 15.5318 7.57135 15.6005 7.61756 15.6546C7.68524 15.7339 7.78799 15.7812 7.89953 15.7742L7.92339 16.1149C7.73518 16.1274 7.59331 16.2894 7.6058 16.4777C7.61128 16.5541 7.64112 16.6228 7.68733 16.6769C7.75501 16.7562 7.85809 16.8039 7.97 16.7965L7.99316 17.1372L6.63146 17.226Z" fill="#0F8EC7"/>
</svg>
