<svg width="20" height="20" viewBox="0 0 20 20" fill="none" xmlns="http://www.w3.org/2000/svg">
<path d="M1.27253 3.18094L2.8082 4.71662H0.830309C0.406418 4.71662 0.0625 4.3727 0.0625 3.94881C0.0625 3.52456 0.406418 3.181 0.830309 3.181H1.27253V3.18094ZM2.27242 3.18094L3.8081 4.71662H5.61792L4.08218 3.18094H2.27242ZM17.0414 7.89714L18.4399 13.2911H18.9889C19.5131 13.2911 19.9389 13.7174 19.9389 14.2411V15.7183V16.4981V19.0505C19.9389 19.5742 19.5131 20 18.9889 20H10.531C10.0073 20 9.58148 19.5742 9.58148 19.0505V16.4981V15.7182V14.241C9.58148 13.7173 10.0073 13.291 10.531 13.291H13.2783L12.8661 11.7008L11.5204 11.1462C11.4307 11.1091 11.3878 11.0062 11.4244 10.9166C11.4619 10.8269 11.5644 10.7836 11.6545 10.821L11.8086 10.8842L12.328 9.62456L11.8804 7.89702H11.2786L6.79524 6.35084V4.71662H6.61703L5.08129 3.18094H6.79518V1.56335L11.2786 0H18.769C19.414 0 19.9388 0.524919 19.9388 1.16992V6.72728C19.9388 7.37228 19.4139 7.8972 18.769 7.8972C18.769 7.89714 17.0414 7.89714 17.0414 7.89714ZM18.769 0.779945H11.7336V7.11719H16.839H18.7689C18.9846 7.11719 19.1589 6.94208 19.1589 6.72722V1.16992C19.159 0.954999 18.9846 0.779945 18.769 0.779945ZM7.57513 5.79522L10.9542 6.96004V0.939041L7.57513 2.11709V5.79522ZM19.159 16.4981H15.4718V15.5263H14.6014V16.4981H10.3614V19.0505C10.3614 19.1437 10.4374 19.2201 10.5314 19.2201H18.9893C19.0829 19.2201 19.1593 19.1441 19.1593 19.0505V16.4981H19.159ZM18.6419 14.071H13.4811H10.5314C10.4378 14.071 10.3614 14.147 10.3614 14.241V15.7182H13.8215V15.5263C13.8215 15.0962 14.1717 14.7464 14.6014 14.7464H15.4718C15.9023 14.7464 16.2518 15.0962 16.2518 15.5263V15.7182H19.159V14.241C19.159 14.1474 19.0829 14.071 18.9889 14.071H18.6419ZM16.2358 7.89714H12.6852L14.0843 13.2911H17.6346L16.2358 7.89714ZM13.2814 2.97852H17.798C17.9961 2.97852 18.156 2.81864 18.156 2.62132C18.156 2.42363 17.9961 2.26375 17.798 2.26375H13.2814C13.0833 2.26375 12.9234 2.42363 12.9234 2.62132C12.9235 2.81864 13.0833 2.97852 13.2814 2.97852ZM13.2814 4.30596H17.798C17.9961 4.30596 18.156 4.14607 18.156 3.94875C18.156 3.75107 17.9961 3.59118 17.798 3.59118H13.2814C13.0833 3.59118 12.9234 3.75107 12.9234 3.94875C12.9235 4.14607 13.0833 4.30596 13.2814 4.30596ZM17.798 4.91819H13.2814C13.0833 4.91819 12.9234 5.07844 12.9234 5.27576C12.9234 5.47308 13.0833 5.63333 13.2814 5.63333H17.798C17.9961 5.63333 18.156 5.47308 18.156 5.27576C18.156 5.0785 17.9961 4.91819 17.798 4.91819Z" fill="#0F8EC7"/>
</svg>
