<svg width="17" height="85" viewBox="0 0 17 85" fill="none" xmlns="http://www.w3.org/2000/svg">
<path fill-rule="evenodd" clip-rule="evenodd" d="M0.96988 52.4374C0.35049 51.2592 1.23244e-06 49.9175 1.10799e-06 48.494L8.0717e-07 46.0731C2.69075e-07 46.0718 0 46.0706 0 46.0693V50.2457L1.10799e-06 59.1627C1.51773e-06 63.8496 3.79951 67.6491 8.48644 67.6491C13.1734 67.6491 16.9729 63.8496 16.9729 59.1627L16.9729 50.2457V48.4997C16.972 49.9211 16.6216 51.2608 16.003 52.4374L16.003 59.1627C16.003 63.314 12.6377 66.6793 8.48644 66.6793C4.33516 66.6793 0.96988 63.314 0.96988 59.1627L0.96988 52.4374Z" fill="#CCDDE8"/>
<path fill-rule="evenodd" clip-rule="evenodd" d="M0.96988 41.7685C0.35049 40.5903 1.23244e-06 39.2486 1.10799e-06 37.8251L8.0717e-07 35.4041C2.69075e-07 35.4029 0 35.4016 0 35.4004V39.5768L1.10799e-06 48.4938C1.51773e-06 53.1807 3.79951 56.9802 8.48644 56.9802C13.1734 56.9802 16.9729 53.1807 16.9729 48.4938L16.9729 39.5768V37.8308C16.972 39.2522 16.6216 40.5918 16.003 41.7685L16.003 48.4938C16.003 52.645 12.6377 56.0103 8.48644 56.0103C4.33516 56.0103 0.96988 52.645 0.96988 48.4938L0.96988 41.7685Z" fill="#799CB3"/>
<rect x="0.5" y="17.958" width="15.9729" height="30.0361" rx="7.98644" stroke="#4C728B"/>
<rect x="8.24219" y="22.792" width="0.969879" height="6.78915" fill="#4C728B"/>
<rect x="8.24219" y="3.39453" width="0.969879" height="12.1235" fill="#4C728B"/>
<rect x="8.24219" y="72.2559" width="0.969879" height="8.72891" fill="#CCDDE8"/>
<path d="M10.9771 2.33645L8.64062 0L6.30418 2.33645H10.9771Z" fill="#4C728B"/>
<path d="M6.30418 82.3511L8.64062 84.6875L10.9771 82.3511H6.30418Z" fill="#CCDDE8"/>
</svg>
