<svg width="27" height="27" viewBox="0 0 27 27" fill="none" xmlns="http://www.w3.org/2000/svg">
<path d="M5.75711 10.6785C6.27254 10.6785 6.77888 10.5977 7.26668 10.4422L10.1659 13.3395L13.341 10.165L10.4431 7.26459C11.0018 5.51895 10.5428 3.58467 9.24083 2.28318C8.31401 1.35609 7.0802 0.845703 5.77016 0.845703C5.03819 0.845703 4.30424 1.01157 3.64571 1.32558C3.54635 1.37292 3.47678 1.46526 3.45815 1.57353C3.44006 1.6818 3.47489 1.79169 3.5522 1.86972L6.60266 4.9209C6.82775 5.14581 6.95195 5.44443 6.95195 5.76141C6.95195 6.0792 6.82757 6.37728 6.60266 6.60219C6.15455 7.05165 5.3711 7.05165 4.92218 6.60102L1.87064 3.55065C1.79243 3.47244 1.68002 3.43815 1.57481 3.45633C1.46627 3.47496 1.3742 3.54453 1.32686 3.64389C0.43064 5.52201 0.81476 7.77111 2.28455 9.23983C3.21191 10.1672 4.44509 10.6785 5.75711 10.6785Z" fill="#4C728B"/>
<path d="M21.2474 16.3215C20.7309 16.3215 20.2238 16.4027 19.7356 16.5586L16.5288 13.3516L13.3516 16.5283L16.5593 19.7359C16.0018 21.481 16.4604 23.4147 17.7616 24.717C18.6887 25.6441 19.9225 26.1546 21.2324 26.1546C21.9647 26.1546 22.6986 25.9884 23.3571 25.6744C23.4565 25.6272 23.5261 25.5348 23.5447 25.4265C23.5633 25.3182 23.528 25.2083 23.4506 25.1303L20.4003 22.0785C20.1756 21.8541 20.0515 21.5561 20.0513 21.2391C20.0513 20.9216 20.1754 20.6235 20.4008 20.3983C20.8504 19.9485 21.6321 19.9487 22.0808 20.3986L25.1317 23.4489C25.2096 23.5266 25.3184 23.5612 25.4279 23.5433C25.5361 23.5244 25.6286 23.4551 25.6758 23.3557C26.572 21.4778 26.1882 19.229 24.7184 17.76C23.7913 16.8328 22.5584 16.3215 21.2474 16.3215Z" fill="#4C728B"/>
<path d="M19.9441 9.08949C19.9441 9.08949 20.4748 9.55434 20.9124 9.33717C21.407 9.08832 22.8002 10.4619 23.2448 10.7833C23.2462 10.7844 23.2493 10.7844 23.2545 10.7869L23.0115 11.031C22.6905 11.3482 22.6908 11.8663 23.0107 12.184C23.3307 12.5027 23.8453 12.5025 24.1655 12.184L26.0895 10.2625C26.4074 9.94305 26.4076 9.42591 26.0889 9.10695C25.7714 8.78907 25.2535 8.78907 24.9348 9.10722L24.6144 9.42735C24.3489 9.06168 23.9077 8.43843 23.9637 8.23197C24.1983 7.32774 22.3549 5.19186 22.3549 5.19186C17.7768 0.614637 14.7189 0.718677 13.2641 1.2189C12.6802 1.41978 12.7885 1.54704 13.395 1.65387C17.8086 2.42427 18.356 5.02707 17.6079 6.03129C17.3201 6.41901 17.7398 6.8871 17.7398 6.8871L17.8976 7.04379L10.4453 14.4947C10.5464 14.5556 10.6446 14.6249 10.7312 14.7118L11.9848 15.9642C12.0699 16.0496 12.1395 16.1471 12.1999 16.2481L19.6522 8.7969L19.9441 9.08949Z" fill="#4C728B"/>
<path d="M10.2277 15.2115C9.95265 14.9362 9.48456 14.9185 9.19035 15.174L0.908643 22.5987C0.613083 22.854 0.596613 23.2884 0.872193 23.564L3.12795 25.8181C3.40371 26.0937 3.83733 26.0783 4.0923 25.7844L11.5193 17.5002C11.7734 17.2063 11.7572 16.7398 11.4814 16.4646L10.2277 15.2115Z" fill="#4C728B"/>
</svg>
